No_Datapath_less_outputs/Show_states/top_results.vcd
$date
	Wed Apr 22 21:18:05 2026
$end
$version
	QuestaSim Version 2023.2
$end
$timescale
	1ps
$end

$scope module top_tb_coords $end
$var reg 1 ! in_clka $end
$var reg 1 " in_clkb $end
$var reg 1 # in_reset $end
$var reg 1 $ in_player_left_input $end
$var reg 1 % in_player_right_input $end
$var reg 1 & in_fire $end
$var wire 1 ' player_coord_x [3] $end
$var wire 1 ( player_coord_x [2] $end
$var wire 1 ) player_coord_x [1] $end
$var wire 1 * player_coord_x [0] $end
$var wire 1 + player_coord_y [3] $end
$var wire 1 , player_coord_y [2] $end
$var wire 1 - player_coord_y [1] $end
$var wire 1 . player_coord_y [0] $end
$var wire 1 / player_display $end
$var wire 1 0 invader_1_coord_x [3] $end
$var wire 1 1 invader_1_coord_x [2] $end
$var wire 1 2 invader_1_coord_x [1] $end
$var wire 1 3 invader_1_coord_x [0] $end
$var wire 1 4 invader_1_coord_y [3] $end
$var wire 1 5 invader_1_coord_y [2] $end
$var wire 1 6 invader_1_coord_y [1] $end
$var wire 1 7 invader_1_coord_y [0] $end
$var wire 1 8 invader_1_display $end
$var wire 1 9 invader_2_coord_x [3] $end
$var wire 1 : invader_2_coord_x [2] $end
$var wire 1 ; invader_2_coord_x [1] $end
$var wire 1 < invader_2_coord_x [0] $end
$var wire 1 = invader_2_coord_y [3] $end
$var wire 1 > invader_2_coord_y [2] $end
$var wire 1 ? invader_2_coord_y [1] $end
$var wire 1 @ invader_2_coord_y [0] $end
$var wire 1 A invader_2_display $end
$var wire 1 B shield_coord_x [3] $end
$var wire 1 C shield_coord_x [2] $end
$var wire 1 D shield_coord_x [1] $end
$var wire 1 E shield_coord_x [0] $end
$var wire 1 F shield_coord_y [3] $end
$var wire 1 G shield_coord_y [2] $end
$var wire 1 H shield_coord_y [1] $end
$var wire 1 I shield_coord_y [0] $end
$var wire 1 J shield_hp [1] $end
$var wire 1 K shield_hp [0] $end
$var wire 1 L shield_display $end
$var wire 1 M player_bullet_coord_x [3] $end
$var wire 1 N player_bullet_coord_x [2] $end
$var wire 1 O player_bullet_coord_x [1] $end
$var wire 1 P player_bullet_coord_x [0] $end
$var wire 1 Q player_bullet_coord_y [3] $end
$var wire 1 R player_bullet_coord_y [2] $end
$var wire 1 S player_bullet_coord_y [1] $end
$var wire 1 T player_bullet_coord_y [0] $end
$var wire 1 U player_bullet_display $end
$var wire 1 V invader_bullet_coord_x [3] $end
$var wire 1 W invader_bullet_coord_x [2] $end
$var wire 1 X invader_bullet_coord_x [1] $end
$var wire 1 Y invader_bullet_coord_x [0] $end
$var wire 1 Z invader_bullet_coord_y [3] $end
$var wire 1 [ invader_bullet_coord_y [2] $end
$var wire 1 \ invader_bullet_coord_y [1] $end
$var wire 1 ] invader_bullet_coord_y [0] $end
$var wire 1 ^ invader_bullet_display $end
$var integer 32 _ log_file $end
$var integer 32 ` i $end

$scope task log_matrix $end
$var reg 256 a test_name [255:0] $end
$upscope $end

$scope task cycle $end
$upscope $end

$scope module U1 $end
$var parameter 32 b START_X $end
$var wire 1 c clka $end
$var wire 1 d clkb $end
$var wire 1 e reset $end
$var wire 1 f player_left_input $end
$var wire 1 g player_right_input $end
$var wire 1 h player_shoot_input $end
$var wire 1 ' player_coord_x [3] $end
$var wire 1 ( player_coord_x [2] $end
$var wire 1 ) player_coord_x [1] $end
$var wire 1 * player_coord_x [0] $end
$var wire 1 / player_display $end
$var wire 1 0 invader_1_coord_x [3] $end
$var wire 1 1 invader_1_coord_x [2] $end
$var wire 1 2 invader_1_coord_x [1] $end
$var wire 1 3 invader_1_coord_x [0] $end
$var wire 1 4 invader_1_coord_y [3] $end
$var wire 1 5 invader_1_coord_y [2] $end
$var wire 1 6 invader_1_coord_y [1] $end
$var wire 1 7 invader_1_coord_y [0] $end
$var wire 1 8 invader_1_display $end
$var wire 1 9 invader_2_coord_x [3] $end
$var wire 1 : invader_2_coord_x [2] $end
$var wire 1 ; invader_2_coord_x [1] $end
$var wire 1 < invader_2_coord_x [0] $end
$var wire 1 = invader_2_coord_y [3] $end
$var wire 1 > invader_2_coord_y [2] $end
$var wire 1 ? invader_2_coord_y [1] $end
$var wire 1 @ invader_2_coord_y [0] $end
$var wire 1 A invader_2_display $end
$var wire 1 B shield_coord_x [3] $end
$var wire 1 C shield_coord_x [2] $end
$var wire 1 D shield_coord_x [1] $end
$var wire 1 E shield_coord_x [0] $end
$var wire 1 F shield_coord_y [3] $end
$var wire 1 G shield_coord_y [2] $end
$var wire 1 H shield_coord_y [1] $end
$var wire 1 I shield_coord_y [0] $end
$var wire 1 J shield_hp [1] $end
$var wire 1 K shield_hp [0] $end
$var wire 1 M player_bullet_coord_x [3] $end
$var wire 1 N player_bullet_coord_x [2] $end
$var wire 1 O player_bullet_coord_x [1] $end
$var wire 1 P player_bullet_coord_x [0] $end
$var wire 1 Q player_bullet_coord_y [3] $end
$var wire 1 R player_bullet_coord_y [2] $end
$var wire 1 S player_bullet_coord_y [1] $end
$var wire 1 T player_bullet_coord_y [0] $end
$var wire 1 U player_bullet_display $end
$var wire 1 V invader_bullet_coord_x [3] $end
$var wire 1 W invader_bullet_coord_x [2] $end
$var wire 1 X invader_bullet_coord_x [1] $end
$var wire 1 Y invader_bullet_coord_x [0] $end
$var wire 1 Z invader_bullet_coord_y [3] $end
$var wire 1 [ invader_bullet_coord_y [2] $end
$var wire 1 \ invader_bullet_coord_y [1] $end
$var wire 1 ] invader_bullet_coord_y [0] $end
$var wire 1 ^ invader_bullet_display $end
$var wire 1 i playerbullet_state $end
$var wire 1 j invaderbullet_state [1] $end
$var wire 1 k invaderbullet_state [0] $end
$var wire 1 l main_game_state [1] $end
$var wire 1 m main_game_state [0] $end
$var wire 1 n player_state [1] $end
$var wire 1 o player_state [0] $end
$var wire 1 p shield_state [1] $end
$var wire 1 q shield_state [0] $end
$var wire 1 r invader_state_1 [1] $end
$var wire 1 s invader_state_1 [0] $end
$var wire 1 t invader_state_2 [1] $end
$var wire 1 u invader_state_2 [0] $end
$var wire 1 v play $end
$var wire 1 w internal_reset $end
$var wire 1 x playerbullet_invader_collision_signal_1 $end
$var wire 1 y invader_outofbounds_signal_1 $end
$var wire 1 z playerbullet_invader_collision_signal_2 $end
$var wire 1 { invader_outofbounds_signal_2 $end
$var wire 1 | player_left_motion $end
$var wire 1 } player_right_motion $end
$var wire 1 ~ invader_direction $end
$var wire 1 !! move_down $end
$var wire 1 "! invaderbullet_player_collision_signal $end
$var wire 1 #! invaderbullet_shield_collision_signal $end
$var wire 1 $! playerbullet_shield_collision_signal $end
$var wire 1 %! invader_fire $end
$var wire 1 &! playerbullet_fire $end
$var wire 1 '! closest_invader_coord_x [3] $end
$var wire 1 (! closest_invader_coord_x [2] $end
$var wire 1 )! closest_invader_coord_x [1] $end
$var wire 1 *! closest_invader_coord_x [0] $end
$var wire 1 +! closest_invader_coord_y [3] $end
$var wire 1 ,! closest_invader_coord_y [2] $end
$var wire 1 -! closest_invader_coord_y [1] $end
$var wire 1 .! closest_invader_coord_y [0] $end
$var wire 1 /! player_bullet_collision $end
$var wire 1 0! invaders_display [1] $end
$var wire 1 1! invaders_display [0] $end
$var wire 1 2! playerbullet_invader_collision_signal $end
$var wire 1 3! player_coord_y [3] $end
$var wire 1 4! player_coord_y [2] $end
$var wire 1 5! player_coord_y [1] $end
$var wire 1 6! player_coord_y [0] $end
$var wire 1 7! shield_display $end

$scope module main_game_fsm $end
$var parameter 4 8! BOTTOM_BOUND $end
$var parameter 4 9! TOP_BOUND $end
$var parameter 32 :! DIRECTION_RIGHT $end
$var parameter 32 ;! DIRECTION_LEFT $end
$var parameter 2 <! INIT $end
$var parameter 2 =! IN_GAME $end
$var parameter 2 >! DIRECTION_CHANGE $end
$var parameter 2 ?! END_GAME $end
$var wire 1 c clka $end
$var wire 1 d clkb $end
$var wire 1 e global_reset $end
$var wire 1 f player_left_input $end
$var wire 1 g player_right_input $end
$var wire 1 h player_shoot_input $end
$var wire 1 / player_display $end
$var wire 1 ' player_coordinate_x [3] $end
$var wire 1 ( player_coordinate_x [2] $end
$var wire 1 ) player_coordinate_x [1] $end
$var wire 1 * player_coordinate_x [0] $end
$var wire 1 3! player_coordinate_y [3] $end
$var wire 1 4! player_coordinate_y [2] $end
$var wire 1 5! player_coordinate_y [1] $end
$var wire 1 6! player_coordinate_y [0] $end
$var wire 1 0! invaders_display [1] $end
$var wire 1 1! invaders_display [0] $end
$var wire 1 0 invader1_coordinate_x [3] $end
$var wire 1 1 invader1_coordinate_x [2] $end
$var wire 1 2 invader1_coordinate_x [1] $end
$var wire 1 3 invader1_coordinate_x [0] $end
$var wire 1 4 invader1_coordinate_y [3] $end
$var wire 1 5 invader1_coordinate_y [2] $end
$var wire 1 6 invader1_coordinate_y [1] $end
$var wire 1 7 invader1_coordinate_y [0] $end
$var wire 1 9 invader2_coordinate_x [3] $end
$var wire 1 : invader2_coordinate_x [2] $end
$var wire 1 ; invader2_coordinate_x [1] $end
$var wire 1 < invader2_coordinate_x [0] $end
$var wire 1 = invader2_coordinate_y [3] $end
$var wire 1 > invader2_coordinate_y [2] $end
$var wire 1 ? invader2_coordinate_y [1] $end
$var wire 1 @ invader2_coordinate_y [0] $end
$var wire 1 V invaderbullet_coord_x [3] $end
$var wire 1 W invaderbullet_coord_x [2] $end
$var wire 1 X invaderbullet_coord_x [1] $end
$var wire 1 Y invaderbullet_coord_x [0] $end
$var wire 1 Z invaderbullet_coord_y [3] $end
$var wire 1 [ invaderbullet_coord_y [2] $end
$var wire 1 \ invaderbullet_coord_y [1] $end
$var wire 1 ] invaderbullet_coord_y [0] $end
$var wire 1 "! invaderbullet_player_collision_signal $end
$var wire 1 #! invaderbullet_shield_collision_signal $end
$var wire 1 y invader_outofbounds_signal_1 $end
$var wire 1 { invader_outofbounds_signal_2 $end
$var reg 1 @! player_left_motion $end
$var reg 1 A! player_right_motion $end
$var wire 1 '! closest_invader_coord_x [3] $end
$var wire 1 (! closest_invader_coord_x [2] $end
$var wire 1 )! closest_invader_coord_x [1] $end
$var wire 1 *! closest_invader_coord_x [0] $end
$var wire 1 +! closest_invader_coord_y [3] $end
$var wire 1 ,! closest_invader_coord_y [2] $end
$var wire 1 -! closest_invader_coord_y [1] $end
$var wire 1 .! closest_invader_coord_y [0] $end
$var reg 1 B! play $end
$var reg 1 C! reset $end
$var reg 1 D! invader_direction $end
$var reg 1 E! playerbullet_fire $end
$var reg 1 F! invaderbullet_fire $end
$var reg 1 G! move_down $end
$var reg 2 H! state [1:0] $end
$var reg 2 I! temp_state [1:0] $end
$var reg 2 J! next_state [1:0] $end
$var wire 1 K! invader_outofbounds $end
$var reg 1 L! prev_invader_outofbounds $end
$var wire 1 M! diff1 [3] $end
$var wire 1 N! diff1 [2] $end
$var wire 1 O! diff1 [1] $end
$var wire 1 P! diff1 [0] $end
$var wire 1 Q! diff2 [3] $end
$var wire 1 R! diff2 [2] $end
$var wire 1 S! diff2 [1] $end
$var wire 1 T! diff2 [0] $end
$var wire 1 U! diff_alive1 [3] $end
$var wire 1 V! diff_alive1 [2] $end
$var wire 1 W! diff_alive1 [1] $end
$var wire 1 X! diff_alive1 [0] $end
$var wire 1 Y! diff_alive2 [3] $end
$var wire 1 Z! diff_alive2 [2] $end
$var wire 1 [! diff_alive2 [1] $end
$var wire 1 \! diff_alive2 [0] $end
$var wire 1 ]! min_diff_12 [3] $end
$var wire 1 ^! min_diff_12 [2] $end
$var wire 1 _! min_diff_12 [1] $end
$var wire 1 `! min_diff_12 [0] $end
$var reg 1 a! temp_player_left_motion $end
$var reg 1 b! temp_player_right_motion $end
$var reg 1 c! temp_playerbullet_fire $end
$var reg 1 d! next_player_left_motion $end
$var reg 1 e! next_player_right_motion $end
$var reg 1 f! next_playerbullet_fire $end

$scope begin FSM_SEQA $end
$upscope $end

$scope begin FSM_SEQB $end
$upscope $end
$upscope $end

$scope module player_fsm $end
$var parameter 4 g! LEFT_BOUND $end
$var parameter 4 h! RIGHT_BOUND $end
$var parameter 4 i! X_START $end
$var parameter 4 j! Y_START $end
$var parameter 2 k! INIT $end
$var parameter 2 l! PLAY $end
$var parameter 2 m! DEAD $end
$var wire 1 c clka $end
$var wire 1 d clkb $end
$var wire 1 w reset $end
$var wire 1 v play $end
$var wire 1 V invader_bullet_coord_x [3] $end
$var wire 1 W invader_bullet_coord_x [2] $end
$var wire 1 X invader_bullet_coord_x [1] $end
$var wire 1 Y invader_bullet_coord_x [0] $end
$var wire 1 Z invader_bullet_coord_y [3] $end
$var wire 1 [ invader_bullet_coord_y [2] $end
$var wire 1 \ invader_bullet_coord_y [1] $end
$var wire 1 ] invader_bullet_coord_y [0] $end
$var wire 1 | player_left_input $end
$var wire 1 } player_right_input $end
$var reg 1 n! invaderbullet_player_collision_signal $end
$var reg 4 o! player_coord_x [3:0] $end
$var reg 4 p! player_coord_y [3:0] $end
$var reg 1 q! display $end
$var reg 2 r! state [1:0] $end
$var reg 2 s! temp_state [1:0] $end
$var reg 2 t! next_state [1:0] $end
$var wire 1 u! intersection_x $end
$var wire 1 v! intersection_y $end
$var wire 1 w! intersection $end

$scope begin FSM_SEQA $end
$upscope $end

$scope begin FSM_SEQB $end
$upscope $end
$upscope $end

$scope module shield_fsm $end
$var parameter 32 x! HP_3 $end
$var parameter 32 y! HP_2 $end
$var parameter 32 z! HP_1 $end
$var parameter 32 {! HP_0 $end
$var parameter 4 |! START_X $end
$var parameter 4 }! START_Y $end
$var parameter 32 ~! SHIELD_DIAMETER $end
$var parameter 2 !" INITIAL $end
$var parameter 2 "" ALIVE $end
$var parameter 2 #" NO_HEALTH $end
$var wire 1 c clka $end
$var wire 1 d clkb $end
$var wire 1 w reset $end
$var wire 1 V invader_bullet_coord_x [3] $end
$var wire 1 W invader_bullet_coord_x [2] $end
$var wire 1 X invader_bullet_coord_x [1] $end
$var wire 1 Y invader_bullet_coord_x [0] $end
$var wire 1 Z invader_bullet_coord_y [3] $end
$var wire 1 [ invader_bullet_coord_y [2] $end
$var wire 1 \ invader_bullet_coord_y [1] $end
$var wire 1 ] invader_bullet_coord_y [0] $end
$var wire 1 M player_bullet_coord_x [3] $end
$var wire 1 N player_bullet_coord_x [2] $end
$var wire 1 O player_bullet_coord_x [1] $end
$var wire 1 P player_bullet_coord_x [0] $end
$var wire 1 Q player_bullet_coord_y [3] $end
$var wire 1 R player_bullet_coord_y [2] $end
$var wire 1 S player_bullet_coord_y [1] $end
$var wire 1 T player_bullet_coord_y [0] $end
$var wire 1 v shield_play $end
$var reg 2 $" hp [1:0] $end
$var reg 1 %" shield_display $end
$var reg 1 &" invaderbullet_shield_collision $end
$var reg 1 '" playerbullet_shield_collision $end
$var reg 4 (" shield_coord_x [3:0] $end
$var reg 4 )" shield_coord_y [3:0] $end
$var reg 2 *" state [1:0] $end
$var reg 2 +" temp_state [1:0] $end
$var reg 2 ," next_state [1:0] $end
$var wire 1 -" invaderbullet_collision_x $end
$var wire 1 ." invaderbullet_collision_y $end
$var wire 1 /" playerbullet_collision_x $end
$var wire 1 0" playerbullet_collision_y $end
$var wire 1 1" playerbullet_shield_distance $end
$upscope $end

$scope module invader_fsm_1 $end
$var parameter 4 2" START_X $end
$var parameter 4 3" START_Y $end
$var parameter 32 4" Y_OFFSET $end
$var parameter 32 5" DEAD_X $end
$var parameter 32 6" DEAD_Y $end
$var parameter 32 7" X_OFFSET $end
$var parameter 32 8" HORIZ_LEFT_BOUND $end
$var parameter 32 9" HORIZ_RIGHT_BOUND $end
$var parameter 2 :" RESET $end
$var parameter 2 ;" MOVE $end
$var parameter 2 <" DEAD $end
$var parameter 2 =" INVALID $end
$var wire 1 c clka $end
$var wire 1 d clkb $end
$var wire 1 w reset $end
$var wire 1 v play $end
$var wire 1 ~ invader_direction $end
$var wire 1 !! move_down $end
$var wire 1 M player_bullet_coord_x [3] $end
$var wire 1 N player_bullet_coord_x [2] $end
$var wire 1 O player_bullet_coord_x [1] $end
$var wire 1 P player_bullet_coord_x [0] $end
$var wire 1 Q player_bullet_coord_y [3] $end
$var wire 1 R player_bullet_coord_y [2] $end
$var wire 1 S player_bullet_coord_y [1] $end
$var wire 1 T player_bullet_coord_y [0] $end
$var reg 1 >" display $end
$var reg 1 ?" playerbullet_invader_collision_signal $end
$var reg 4 @" invader_coord_x [3:0] $end
$var reg 4 A" invader_coord_y [3:0] $end
$var reg 1 B" invader_outofbounds_signal $end
$var reg 2 C" state [1:0] $end
$var reg 2 D" temp_state [1:0] $end
$var reg 2 E" next_state [1:0] $end
$var wire 1 F" collision_detect_x $end
$var wire 1 G" collision_detect_y $end
$var reg 1 H" move_interval_toggle $end

$scope begin FSM_SEQ $end
$upscope $end

$scope begin OUTPUT_LOGIC $end
$upscope $end
$upscope $end

$scope module invader_fsm_2 $end
$var parameter 4 I" START_X $end
$var parameter 4 J" START_Y $end
$var parameter 32 K" Y_OFFSET $end
$var parameter 32 L" DEAD_X $end
$var parameter 32 M" DEAD_Y $end
$var parameter 32 N" X_OFFSET $end
$var parameter 32 O" HORIZ_LEFT_BOUND $end
$var parameter 32 P" HORIZ_RIGHT_BOUND $end
$var parameter 2 Q" RESET $end
$var parameter 2 R" MOVE $end
$var parameter 2 S" DEAD $end
$var parameter 2 T" INVALID $end
$var wire 1 c clka $end
$var wire 1 d clkb $end
$var wire 1 w reset $end
$var wire 1 v play $end
$var wire 1 ~ invader_direction $end
$var wire 1 !! move_down $end
$var wire 1 M player_bullet_coord_x [3] $end
$var wire 1 N player_bullet_coord_x [2] $end
$var wire 1 O player_bullet_coord_x [1] $end
$var wire 1 P player_bullet_coord_x [0] $end
$var wire 1 Q player_bullet_coord_y [3] $end
$var wire 1 R player_bullet_coord_y [2] $end
$var wire 1 S player_bullet_coord_y [1] $end
$var wire 1 T player_bullet_coord_y [0] $end
$var reg 1 U" display $end
$var reg 1 V" playerbullet_invader_collision_signal $end
$var reg 4 W" invader_coord_x [3:0] $end
$var reg 4 X" invader_coord_y [3:0] $end
$var reg 1 Y" invader_outofbounds_signal $end
$var reg 2 Z" state [1:0] $end
$var reg 2 [" temp_state [1:0] $end
$var reg 2 \" next_state [1:0] $end
$var wire 1 ]" collision_detect_x $end
$var wire 1 ^" collision_detect_y $end
$var reg 1 _" move_interval_toggle $end

$scope begin FSM_SEQ $end
$upscope $end

$scope begin OUTPUT_LOGIC $end
$upscope $end
$upscope $end

$scope module player_bullet_fsm $end
$var parameter 32 `" Y_OFFSET $end
$var parameter 32 a" Y_MAX $end
$var parameter 2 b" INIT $end
$var parameter 2 c" FIRING $end
$var wire 1 c clka $end
$var wire 1 d clkb $end
$var wire 1 w reset $end
$var wire 1 &! fire $end
$var wire 1 ' player_coord_x [3] $end
$var wire 1 ( player_coord_x [2] $end
$var wire 1 ) player_coord_x [1] $end
$var wire 1 * player_coord_x [0] $end
$var wire 1 3! player_coord_y [3] $end
$var wire 1 4! player_coord_y [2] $end
$var wire 1 5! player_coord_y [1] $end
$var wire 1 6! player_coord_y [0] $end
$var wire 1 2! player_bullet_collision $end
$var wire 1 $! shield_bullet_collision $end
$var reg 1 d" display $end
$var reg 4 e" player_bullet_coord_x [3:0] $end
$var reg 4 f" player_bullet_coord_y [3:0] $end
$var reg 1 g" state $end
$var reg 2 h" temp_state [1:0] $end
$var reg 2 i" next_state [1:0] $end
$var wire 1 j" collide $end
$var wire 1 k" boundary $end

$scope begin FSM_SEQA $end
$upscope $end

$scope begin FSM_SEQB $end
$upscope $end
$upscope $end

$scope module invader_bullet_fsm $end
$var parameter 32 l" BULLET_Y_OFFSET $end
$var parameter 32 m" BOUNDARY_Y $end
$var parameter 32 n" START_X $end
$var parameter 32 o" START_Y $end
$var parameter 2 p" INITIAL $end
$var parameter 2 q" FIRING $end
$var wire 1 c clka $end
$var wire 1 d clkb $end
$var wire 1 w reset $end
$var wire 1 "! invaderbullet_player_collision_signal $end
$var wire 1 #! invaderbullet_shield_collision_signal $end
$var wire 1 %! invader_fire $end
$var wire 1 '! closest_invader_coord_x [3] $end
$var wire 1 (! closest_invader_coord_x [2] $end
$var wire 1 )! closest_invader_coord_x [1] $end
$var wire 1 *! closest_invader_coord_x [0] $end
$var wire 1 +! closest_invader_coord_y [3] $end
$var wire 1 ,! closest_invader_coord_y [2] $end
$var wire 1 -! closest_invader_coord_y [1] $end
$var wire 1 .! closest_invader_coord_y [0] $end
$var reg 1 r" invader_bullet_display $end
$var reg 4 s" invader_bullet_coord_x [3:0] $end
$var reg 4 t" invader_bullet_coord_y [3:0] $end
$var reg 2 u" state [1:0] $end
$var reg 2 v" temp_state [1:0] $end
$var reg 2 w" next_state [1:0] $end

$scope begin OUTPUT_LOGIC $end
$upscope $end
$upscope $end
$upscope $end
$upscope $end
$enddefinitions $end
#0
$dumpvars
0!
0"
0#
0$
0%
0&
bx a
x@!
xA!
xB!
xC!
xD!
xE!
xF!
xG!
b0 H!
b0 I!
bx J!
xL!
0a!
0b!
0c!
xd!
xe!
xf!
0n!
b111 o!
b0 p!
1q!
b0 r!
b0 s!
bx t!
bx $"
x%"
x&"
x'"
bx ("
bx )"
b0 *"
b0 +"
bx ,"
x>"
x?"
bx @"
bx A"
xB"
bx C"
bx D"
bx E"
xH"
xU"
xV"
bx W"
bx X"
xY"
bx Z"
bx ["
bx \"
x_"
xd"
bx e"
bx f"
0g"
b0 h"
bx i"
xr"
bx s"
bx t"
b0 u"
b0 v"
bx w"
b101 b
b0 8!
b1111 9!
b1 :!
b0 ;!
b0 <!
b1 =!
b10 >!
b11 ?!
b10 g!
b1101 h!
b111 i!
b0 j!
b0 k!
b1 l!
b10 m!
b11 x!
b10 y!
b1 z!
b0 {!
b111 |!
b100 }!
b10 ~!
b0 !"
b1 ""
b10 #"
b101 2"
b1101 3"
b10 4"
b101 5"
b101 6"
b1 7"
b10 8"
b1110 9"
b0 :"
b1 ;"
b10 <"
b11 ="
b1001 I"
b1101 J"
b10 K"
b101 L"
b101 M"
b1 N"
b10 O"
b1110 P"
b0 Q"
b1 R"
b10 S"
b11 T"
b1 `"
b1111 a"
b0 b"
b1 c"
b1 l"
b0 m"
b1001 n"
b1101 o"
b0 p"
b1 q"
b10000000000000000000000000000011 _
bx `
1*
1)
1(
0'
z.
z-
z,
z+
1/
x3
x2
x1
x0
x7
x6
x5
x4
x8
x<
x;
x:
x9
x@
x?
x>
x=
xA
xE
xD
xC
xB
xI
xH
xG
xF
xK
xJ
zL
xP
xO
xN
xM
xT
xS
xR
xQ
xU
xY
xX
xW
xV
x]
x\
x[
xZ
x^
xv
xw
xx
xy
xz
x{
x|
x}
x~
x!!
0"!
x#!
x$!
x%!
x&!
x*!
x)!
x(!
x'!
x.!
x-!
x,!
x+!
z/!
x1!
x0!
x2!
06!
05!
04!
03!
x7!
xK!
xP!
xO!
xN!
xM!
xT!
xS!
xR!
xQ!
xX!
xW!
xV!
xU!
x\!
x[!
xZ!
xY!
x`!
x_!
x^!
x]!
xu!
xv!
xw!
x-"
x."
x/"
x0"
z1"
xF"
xG"
x]"
x^"
xj"
xk"
0h
0g
0f
0e
0d
0c
0i
0k
0j
0m
0l
0o
0n
0q
0p
xs
xr
xu
xt
$end
#1000000
1!
1c
#2000000
0!
0c
b0 t!
b0 ,"
b0 i"
b0 w"
b0 J!
0d!
0e!
0f!
#3000000
1"
1d
#4000000
b0 a
1#
0"
1e
0d
0r"
b111 e"
b0 f"
0d"
b11 $"
b111 ("
b100 )"
0&"
0'"
1%"
0@!
0A!
0B!
1C!
0G!
1D!
0E!
0F!
0L!
0^
0U
0I
0H
1G
0F
1E
1D
1C
0B
1K
1J
0T
0S
0R
0Q
1P
1O
1N
0M
0$!
17!
0|
0}
1w
0!!
1~
00"
1/"
0k"
0#!
0v
0&!
0%!
b0 D"
b0 ["
#5000000
1!
1c
#6000000
0!
0c
b0 E"
b0 \"
#7000000
1"
1d
#8000000
0#
1&
b0 `
0"
0e
1h
0d
b1 I!
b0 C"
b101 @"
b1101 A"
1>"
0?"
0H"
0B"
b0 Z"
b1001 W"
b1101 X"
1U"
0V"
0_"
0Y"
b1000 e"
b10 f"
b1001 s"
b1101 t"
18
0x
0y
1A
0z
0{
1]
0\
1[
1Z
1Y
0X
0W
1V
1S
0P
0O
0N
1M
1@
0?
1>
1=
1<
0;
0:
19
0u
0t
17
06
15
14
13
02
11
00
0s
0r
02!
0v!
0u!
0T!
1S!
0R!
0Q!
0P!
1O!
0N!
0M!
1*!
0)!
1W!
1[!
1_!
0F"
0G"
1]"
0^"
0K!
0."
1-"
1.!
0-!
1,!
1+!
11!
10!
0j"
0w!
0\!
0Z!
0Y!
0X!
0V!
0U!
0`!
0^!
0]!
0(!
1'!
#9000000
1!
1c
#10000000
0!
0c
b1 J!
#11000000
1"
1d
#12000000
b1 `
0"
0d
0C!
b1 H!
1B!
1F!
0w
1m
1v
1%!
b1 v"
b1 s!
b1 +"
b1 D"
b1 ["
1c!
#13000000
1!
1c
#14000000
0!
0c
b1 t!
b1 ,"
b1 E"
b1 \"
b1 w"
1f!
#15000000
1"
1d
#16000000
b10 `
0"
0d
b1 r!
b1 *"
b1 C"
1H"
b1 Z"
1_"
b111 e"
b0 f"
b1 u"
1r"
b1100 t"
1E!
1^
0]
1k
0S
1P
1O
1N
0M
1u
1s
1q
1o
1&!
0]"
b1 h"
#17000000
1!
1c
#18000000
0!
0c
b1 i"
#19000000
1"
1d
#20000000
b11 `
0"
0d
b1011 t"
1g"
b1 f"
1d"
0_"
b1010 W"
0H"
b110 @"
1i
1U
03
12
0<
1;
1T
1]
1\
0[
1P!
0O!
1T!
0*!
1)!
1\!
1X!
0W!
1`!
0_!
1(!
0'!
1F"
#21000000
1!
1c
#22000000
0!
0c
#23000000
1"
1d
#24000000
b100 `
0&
b0 `
0"
0h
0d
0c!
1H"
1_"
b10 f"
b1010 t"
0]
0T
1S
#25000000
1!
1c
#26000000
0!
0c
0f!
#27000000
1"
1d
#28000000
b1 `
0"
0d
0E!
b1001 t"
b11 f"
0_"
b1011 W"
0H"
b111 @"
13
1<
1T
1]
0\
0P!
0T!
0S!
1R!
1*!
0\!
0[!
1Z!
0X!
0`!
0&!
#29000000
1!
1c
#30000000
0!
0c
#31000000
1"
1d
#32000000
b10 `
1&
b0 `
0"
1h
0d
1c!
1H"
1_"
b100 f"
b1000 t"
0]
0T
0S
1R
10"
#33000000
1!
1c
#34000000
0!
0c
1f!
#35000000
1"
1d
#36000000
b1 `
0"
0d
1E!
1'"
b111 t"
b101 f"
0_"
b1100 W"
0H"
b1000 @"
1$!
03
02
01
10
0<
0;
1:
1T
1]
1\
1[
0Z
00"
1P!
1T!
0*!
0)!
0(!
1'!
1\!
1X!
1`!
1&!
1j"
b0 h"
#37000000
1!
1c
#38000000
0!
0c
b0 i"
#39000000
1"
1d
#40000000
b10 `
1%
b0 `
0"
1g
0d
1b!
1H"
1_"
0g"
b0 f"
0d"
b110 t"
0'"
0i
0U
0]
0T
0R
0$!
0j"
b1 h"
#41000000
1!
1c
#42000000
0!
0c
1e!
b1 i"
#43000000
1"
1d
#44000000
b1 `
0"
0d
1A!
b101 t"
1g"
b1 f"
1d"
0_"
b1101 W"
1Y"
0H"
b1001 @"
1}
1i
1U
1{
13
1<
1T
1]
0\
0P!
1O!
0T!
1S!
1*!
0\!
1[!
0X!
1W!
0`!
1_!
0F"
1K!
b10 I!
#45000000
1!
1c
#46000000
0!
0c
b10 J!
#47000000
1"
1d
#48000000
b10 `
0"
0d
b1000 o!
1H"
1_"
b10 f"
b100 t"
b10 H!
0D!
1G!
1L!
1u!
0m
1l
0]
0T
1S
0*
0)
0(
1'
0~
1!!
1P!
0O!
1T!
0S!
1\!
0[!
1X!
0W!
1`!
0_!
1."
b1 I!
#49000000
1!
1c
#50000000
0!
0c
b1 J!
#51000000
1"
1d
#52000000
b11 `
0"
0d
b10 $"
1&"
b1 H!
0G!
b11 t"
b11 f"
0_"
b1011 X"
0H"
b1011 A"
b1001 o!
0!!
1*
16
05
1?
0>
1T
1]
1\
0[
1m
0l
0K
0P!
0T!
0\!
0X!
0`!
1#!
1-!
0,!
0."
b0 v"
#53000000
1!
1c
#54000000
0!
0c
b0 w"
#55000000
1"
1d
#56000000
b100 `
0"
0d
b1010 o!
1H"
1_"
b100 f"
b0 u"
0r"
b1011 t"
0&"
0^
1Z
0k
0T
0S
1R
0*
1)
10"
1P!
1T!
1S!
0R!
1\!
1[!
0Z!
1X!
1`!
0#!
b1 v"
#57000000
1!
1c
#58000000
0!
0c
b1 w"
#59000000
1"
1d
#60000000
b101 `
0"
0d
1'"
b1 u"
1r"
b1010 t"
b101 f"
0_"
b1100 W"
0Y"
0H"
b1000 @"
b1011 o!
1$!
1^
0{
0u!
1*
03
0<
1T
0]
1k
00"
1O!
0S!
0*!
0[!
1W!
1(!
1F"
1j"
0K!
b0 h"
#61000000
1!
1c
#62000000
0!
0c
b0 i"
#63000000
1"
1d
#64000000
b110 `
b0 `
0"
0d
0L!
b1100 o!
1H"
1_"
0g"
b1011 e"
b0 f"
0d"
b1001 t"
0'"
0i
0U
1]
0\
0T
0R
0N
1M
0*
0)
1(
0$!
0/"
0P!
0O!
1N!
0T!
0\!
0X!
0W!
1V!
0`!
1]"
0F"
0j"
b1 h"
#65000000
1!
1c
#66000000
0!
0c
b1 i"
#67000000
1"
1d
#68000000
b1 `
0"
0d
b1000 t"
1g"
b1 f"
1d"
0_"
b1011 W"
0H"
b111 @"
b1101 o!
1i
1U
1*
13
12
11
00
1<
1;
0:
1T
0]
1O!
1S!
1*!
1)!
0(!
1[!
1W!
1_!
#69000000
1!
1c
#70000000
0!
0c
#71000000
1"
1d
