No_Datapath_less_outputs/Synthesis/top_results.vcd
$date
	Mon Apr 20 00:18:48 2026
$end
$version
	QuestaSim Version 2023.2
$end
$timescale
	1ps
$end

$scope module top_tb_coords $end
$var reg 1 ! in_clka $end
$var reg 1 " in_clkb $end
$var reg 1 # in_reset $end
$var reg 1 $ in_player_left_input $end
$var reg 1 % in_player_right_input $end
$var reg 1 & in_fire $end
$var wire 1 ' player_coord_x [3] $end
$var wire 1 ( player_coord_x [2] $end
$var wire 1 ) player_coord_x [1] $end
$var wire 1 * player_coord_x [0] $end
$var wire 1 + player_coord_y [3] $end
$var wire 1 , player_coord_y [2] $end
$var wire 1 - player_coord_y [1] $end
$var wire 1 . player_coord_y [0] $end
$var wire 1 / player_display $end
$var wire 1 0 invader_1_coord_x [3] $end
$var wire 1 1 invader_1_coord_x [2] $end
$var wire 1 2 invader_1_coord_x [1] $end
$var wire 1 3 invader_1_coord_x [0] $end
$var wire 1 4 invader_1_coord_y [3] $end
$var wire 1 5 invader_1_coord_y [2] $end
$var wire 1 6 invader_1_coord_y [1] $end
$var wire 1 7 invader_1_coord_y [0] $end
$var wire 1 8 invader_1_display $end
$var wire 1 9 invader_2_coord_x [3] $end
$var wire 1 : invader_2_coord_x [2] $end
$var wire 1 ; invader_2_coord_x [1] $end
$var wire 1 < invader_2_coord_x [0] $end
$var wire 1 = invader_2_coord_y [3] $end
$var wire 1 > invader_2_coord_y [2] $end
$var wire 1 ? invader_2_coord_y [1] $end
$var wire 1 @ invader_2_coord_y [0] $end
$var wire 1 A invader_2_display $end
$var wire 1 B shield_coord_x [3] $end
$var wire 1 C shield_coord_x [2] $end
$var wire 1 D shield_coord_x [1] $end
$var wire 1 E shield_coord_x [0] $end
$var wire 1 F shield_coord_y [3] $end
$var wire 1 G shield_coord_y [2] $end
$var wire 1 H shield_coord_y [1] $end
$var wire 1 I shield_coord_y [0] $end
$var wire 1 J shield_hp [1] $end
$var wire 1 K shield_hp [0] $end
$var wire 1 L shield_display $end
$var wire 1 M player_bullet_coord_x [3] $end
$var wire 1 N player_bullet_coord_x [2] $end
$var wire 1 O player_bullet_coord_x [1] $end
$var wire 1 P player_bullet_coord_x [0] $end
$var wire 1 Q player_bullet_coord_y [3] $end
$var wire 1 R player_bullet_coord_y [2] $end
$var wire 1 S player_bullet_coord_y [1] $end
$var wire 1 T player_bullet_coord_y [0] $end
$var wire 1 U player_bullet_display $end
$var wire 1 V invader_bullet_coord_x [3] $end
$var wire 1 W invader_bullet_coord_x [2] $end
$var wire 1 X invader_bullet_coord_x [1] $end
$var wire 1 Y invader_bullet_coord_x [0] $end
$var wire 1 Z invader_bullet_coord_y [3] $end
$var wire 1 [ invader_bullet_coord_y [2] $end
$var wire 1 \ invader_bullet_coord_y [1] $end
$var wire 1 ] invader_bullet_coord_y [0] $end
$var wire 1 ^ invader_bullet_display $end
$var integer 32 _ log_file $end
$var integer 32 ` i $end

$scope task log_matrix $end
$var reg 256 a test_name [255:0] $end
$upscope $end

$scope task cycle $end
$upscope $end

$scope module U1 $end
$var parameter 32 b START_X $end
$var wire 1 c clka $end
$var wire 1 d clkb $end
$var wire 1 e reset $end
$var wire 1 f player_left_input $end
$var wire 1 g player_right_input $end
$var wire 1 h player_shoot_input $end
$var wire 1 ' player_coord_x [3] $end
$var wire 1 ( player_coord_x [2] $end
$var wire 1 ) player_coord_x [1] $end
$var wire 1 * player_coord_x [0] $end
$var wire 1 + player_coord_y [3] $end
$var wire 1 , player_coord_y [2] $end
$var wire 1 - player_coord_y [1] $end
$var wire 1 . player_coord_y [0] $end
$var wire 1 / player_display $end
$var wire 1 0 invader_1_coord_x [3] $end
$var wire 1 1 invader_1_coord_x [2] $end
$var wire 1 2 invader_1_coord_x [1] $end
$var wire 1 3 invader_1_coord_x [0] $end
$var wire 1 4 invader_1_coord_y [3] $end
$var wire 1 5 invader_1_coord_y [2] $end
$var wire 1 6 invader_1_coord_y [1] $end
$var wire 1 7 invader_1_coord_y [0] $end
$var wire 1 8 invader_1_display $end
$var wire 1 9 invader_2_coord_x [3] $end
$var wire 1 : invader_2_coord_x [2] $end
$var wire 1 ; invader_2_coord_x [1] $end
$var wire 1 < invader_2_coord_x [0] $end
$var wire 1 = invader_2_coord_y [3] $end
$var wire 1 > invader_2_coord_y [2] $end
$var wire 1 ? invader_2_coord_y [1] $end
$var wire 1 @ invader_2_coord_y [0] $end
$var wire 1 A invader_2_display $end
$var wire 1 B shield_coord_x [3] $end
$var wire 1 C shield_coord_x [2] $end
$var wire 1 D shield_coord_x [1] $end
$var wire 1 E shield_coord_x [0] $end
$var wire 1 F shield_coord_y [3] $end
$var wire 1 G shield_coord_y [2] $end
$var wire 1 H shield_coord_y [1] $end
$var wire 1 I shield_coord_y [0] $end
$var wire 1 J shield_hp [1] $end
$var wire 1 K shield_hp [0] $end
$var wire 1 L shield_display $end
$var wire 1 M player_bullet_coord_x [3] $end
$var wire 1 N player_bullet_coord_x [2] $end
$var wire 1 O player_bullet_coord_x [1] $end
$var wire 1 P player_bullet_coord_x [0] $end
$var wire 1 Q player_bullet_coord_y [3] $end
$var wire 1 R player_bullet_coord_y [2] $end
$var wire 1 S player_bullet_coord_y [1] $end
$var wire 1 T player_bullet_coord_y [0] $end
$var wire 1 U player_bullet_display $end
$var wire 1 V invader_bullet_coord_x [3] $end
$var wire 1 W invader_bullet_coord_x [2] $end
$var wire 1 X invader_bullet_coord_x [1] $end
$var wire 1 Y invader_bullet_coord_x [0] $end
$var wire 1 Z invader_bullet_coord_y [3] $end
$var wire 1 [ invader_bullet_coord_y [2] $end
$var wire 1 \ invader_bullet_coord_y [1] $end
$var wire 1 ] invader_bullet_coord_y [0] $end
$var wire 1 ^ invader_bullet_display $end
$var wire 1 i playerbullet_state $end
$var wire 1 j main_game_state [1] $end
$var wire 1 k main_game_state [0] $end
$var wire 1 l play $end
$var wire 1 m internal_reset $end
$var wire 1 n playerbullet_invader_collision_signal_1 $end
$var wire 1 o invader_outofbounds_signal_1 $end
$var wire 1 p playerbullet_invader_collision_signal_2 $end
$var wire 1 q invader_outofbounds_signal_2 $end
$var wire 1 r player_left_motion $end
$var wire 1 s player_right_motion $end
$var wire 1 t invader_direction $end
$var wire 1 u move_down $end
$var wire 1 v invaderbullet_player_collision_signal $end
$var wire 1 w invaderbullet_shield_collision_signal $end
$var wire 1 x playerbullet_shield_collision_signal $end
$var wire 1 y invader_fire $end
$var wire 1 z playerbullet_fire $end
$var wire 1 { closest_invader_coord_x [3] $end
$var wire 1 | closest_invader_coord_x [2] $end
$var wire 1 } closest_invader_coord_x [1] $end
$var wire 1 ~ closest_invader_coord_x [0] $end
$var wire 1 !! closest_invader_coord_y [3] $end
$var wire 1 "! closest_invader_coord_y [2] $end
$var wire 1 #! closest_invader_coord_y [1] $end
$var wire 1 $! closest_invader_coord_y [0] $end
$var wire 1 %! player_bullet_collision $end
$var wire 1 &! invaders_display [1] $end
$var wire 1 '! invaders_display [0] $end
$var wire 1 (! playerbullet_invader_collision_signal $end

$scope module main_game_fsm $end
$var parameter 4 )! BOTTOM_BOUND $end
$var parameter 4 *! TOP_BOUND $end
$var parameter 32 +! DIRECTION_RIGHT $end
$var parameter 32 ,! DIRECTION_LEFT $end
$var parameter 2 -! INIT $end
$var parameter 2 .! IN_GAME $end
$var parameter 2 /! DIRECTION_CHANGE $end
$var parameter 2 0! END_GAME $end
$var wire 1 c clka $end
$var wire 1 d clkb $end
$var wire 1 e global_reset $end
$var wire 1 f player_left_input $end
$var wire 1 g player_right_input $end
$var wire 1 h player_shoot_input $end
$var wire 1 / player_display $end
$var wire 1 ' player_coordinate_x [3] $end
$var wire 1 ( player_coordinate_x [2] $end
$var wire 1 ) player_coordinate_x [1] $end
$var wire 1 * player_coordinate_x [0] $end
$var wire 1 + player_coordinate_y [3] $end
$var wire 1 , player_coordinate_y [2] $end
$var wire 1 - player_coordinate_y [1] $end
$var wire 1 . player_coordinate_y [0] $end
$var wire 1 &! invaders_display [1] $end
$var wire 1 '! invaders_display [0] $end
$var wire 1 0 invader1_coordinate_x [3] $end
$var wire 1 1 invader1_coordinate_x [2] $end
$var wire 1 2 invader1_coordinate_x [1] $end
$var wire 1 3 invader1_coordinate_x [0] $end
$var wire 1 4 invader1_coordinate_y [3] $end
$var wire 1 5 invader1_coordinate_y [2] $end
$var wire 1 6 invader1_coordinate_y [1] $end
$var wire 1 7 invader1_coordinate_y [0] $end
$var wire 1 9 invader2_coordinate_x [3] $end
$var wire 1 : invader2_coordinate_x [2] $end
$var wire 1 ; invader2_coordinate_x [1] $end
$var wire 1 < invader2_coordinate_x [0] $end
$var wire 1 = invader2_coordinate_y [3] $end
$var wire 1 > invader2_coordinate_y [2] $end
$var wire 1 ? invader2_coordinate_y [1] $end
$var wire 1 @ invader2_coordinate_y [0] $end
$var wire 1 V invaderbullet_coord_x [3] $end
$var wire 1 W invaderbullet_coord_x [2] $end
$var wire 1 X invaderbullet_coord_x [1] $end
$var wire 1 Y invaderbullet_coord_x [0] $end
$var wire 1 Z invaderbullet_coord_y [3] $end
$var wire 1 [ invaderbullet_coord_y [2] $end
$var wire 1 \ invaderbullet_coord_y [1] $end
$var wire 1 ] invaderbullet_coord_y [0] $end
$var wire 1 v invaderbullet_player_collision_signal $end
$var wire 1 w invaderbullet_shield_collision_signal $end
$var wire 1 o invader_outofbounds_signal_1 $end
$var wire 1 q invader_outofbounds_signal_2 $end
$var reg 1 1! player_left_motion $end
$var reg 1 2! player_right_motion $end
$var wire 1 { closest_invader_coord_x [3] $end
$var wire 1 | closest_invader_coord_x [2] $end
$var wire 1 } closest_invader_coord_x [1] $end
$var wire 1 ~ closest_invader_coord_x [0] $end
$var wire 1 !! closest_invader_coord_y [3] $end
$var wire 1 "! closest_invader_coord_y [2] $end
$var wire 1 #! closest_invader_coord_y [1] $end
$var wire 1 $! closest_invader_coord_y [0] $end
$var reg 1 3! play $end
$var reg 1 4! reset $end
$var reg 1 5! invader_direction $end
$var reg 1 6! playerbullet_fire $end
$var reg 1 7! invaderbullet_fire $end
$var reg 1 8! move_down $end
$var reg 2 9! state [1:0] $end
$var reg 2 :! temp_state [1:0] $end
$var reg 2 ;! next_state [1:0] $end
$var wire 1 <! invader_outofbounds $end
$var reg 1 =! prev_invader_outofbounds $end
$var wire 1 >! diff1 [3] $end
$var wire 1 ?! diff1 [2] $end
$var wire 1 @! diff1 [1] $end
$var wire 1 A! diff1 [0] $end
$var wire 1 B! diff2 [3] $end
$var wire 1 C! diff2 [2] $end
$var wire 1 D! diff2 [1] $end
$var wire 1 E! diff2 [0] $end
$var wire 1 F! diff_alive1 [3] $end
$var wire 1 G! diff_alive1 [2] $end
$var wire 1 H! diff_alive1 [1] $end
$var wire 1 I! diff_alive1 [0] $end
$var wire 1 J! diff_alive2 [3] $end
$var wire 1 K! diff_alive2 [2] $end
$var wire 1 L! diff_alive2 [1] $end
$var wire 1 M! diff_alive2 [0] $end
$var wire 1 N! min_diff_12 [3] $end
$var wire 1 O! min_diff_12 [2] $end
$var wire 1 P! min_diff_12 [1] $end
$var wire 1 Q! min_diff_12 [0] $end
$var reg 1 R! temp_player_left_motion $end
$var reg 1 S! temp_player_right_motion $end
$var reg 1 T! temp_playerbullet_fire $end
$var reg 1 U! next_player_left_motion $end
$var reg 1 V! next_player_right_motion $end
$var reg 1 W! next_playerbullet_fire $end

$scope begin FSM_SEQA $end
$upscope $end

$scope begin FSM_SEQB $end
$upscope $end
$upscope $end

$scope module player_fsm $end
$var parameter 4 X! LEFT_BOUND $end
$var parameter 4 Y! RIGHT_BOUND $end
$var parameter 4 Z! X_START $end
$var parameter 4 [! Y_START $end
$var parameter 2 \! INIT $end
$var parameter 2 ]! PLAY $end
$var parameter 2 ^! DEAD $end
$var wire 1 c clka $end
$var wire 1 d clkb $end
$var wire 1 m reset $end
$var wire 1 l play $end
$var wire 1 V invader_bullet_coord_x [3] $end
$var wire 1 W invader_bullet_coord_x [2] $end
$var wire 1 X invader_bullet_coord_x [1] $end
$var wire 1 Y invader_bullet_coord_x [0] $end
$var wire 1 Z invader_bullet_coord_y [3] $end
$var wire 1 [ invader_bullet_coord_y [2] $end
$var wire 1 \ invader_bullet_coord_y [1] $end
$var wire 1 ] invader_bullet_coord_y [0] $end
$var wire 1 r player_left_input $end
$var wire 1 s player_right_input $end
$var reg 1 _! invaderbullet_player_collision_signal $end
$var reg 4 `! player_coord_x [3:0] $end
$var reg 4 a! player_coord_y [3:0] $end
$var reg 1 b! display $end
$var reg 2 c! state [1:0] $end
$var reg 2 d! temp_state [1:0] $end
$var reg 2 e! next_state [1:0] $end
$var wire 1 f! intersection_x $end
$var wire 1 g! intersection_y $end
$var wire 1 h! intersection $end

$scope begin FSM_SEQA $end
$upscope $end

$scope begin FSM_SEQB $end
$upscope $end
$upscope $end

$scope module shield_fsm $end
$var parameter 32 i! HP_3 $end
$var parameter 32 j! HP_2 $end
$var parameter 32 k! HP_1 $end
$var parameter 32 l! HP_0 $end
$var parameter 6 m! START_X $end
$var parameter 6 n! START_Y $end
$var parameter 32 o! SHIELD_DIAMETER $end
$var parameter 2 p! INITIAL $end
$var parameter 2 q! ALIVE $end
$var parameter 2 r! NO_HEALTH $end
$var wire 1 c clka $end
$var wire 1 d clkb $end
$var wire 1 m reset $end
$var wire 1 V invader_bullet_coord_x [3] $end
$var wire 1 W invader_bullet_coord_x [2] $end
$var wire 1 X invader_bullet_coord_x [1] $end
$var wire 1 Y invader_bullet_coord_x [0] $end
$var wire 1 Z invader_bullet_coord_y [3] $end
$var wire 1 [ invader_bullet_coord_y [2] $end
$var wire 1 \ invader_bullet_coord_y [1] $end
$var wire 1 ] invader_bullet_coord_y [0] $end
$var wire 1 M player_bullet_coord_x [3] $end
$var wire 1 N player_bullet_coord_x [2] $end
$var wire 1 O player_bullet_coord_x [1] $end
$var wire 1 P player_bullet_coord_x [0] $end
$var wire 1 Q player_bullet_coord_y [3] $end
$var wire 1 R player_bullet_coord_y [2] $end
$var wire 1 S player_bullet_coord_y [1] $end
$var wire 1 T player_bullet_coord_y [0] $end
$var wire 1 l shield_play $end
$var reg 2 s! hp [1:0] $end
$var reg 1 t! shield_display $end
$var reg 1 u! invaderbullet_shield_collision $end
$var reg 1 v! playerbullet_shield_collision $end
$var reg 4 w! shield_coord_x [3:0] $end
$var reg 4 x! shield_coord_y [3:0] $end
$var reg 2 y! state [1:0] $end
$var reg 2 z! temp_state [1:0] $end
$var reg 2 {! next_state [1:0] $end
$var wire 1 |! invaderbullet_collision_x $end
$var wire 1 }! invaderbullet_collision_y $end
$var wire 1 ~! playerbullet_collision_x $end
$var wire 1 !" playerbullet_collision_y $end
$var wire 1 "" playerbullet_shield_distance $end
$upscope $end

$scope module invader_fsm_1 $end
$var parameter 4 #" START_X $end
$var parameter 4 $" START_Y $end
$var parameter 32 %" Y_OFFSET $end
$var parameter 32 &" DEAD_X $end
$var parameter 32 '" DEAD_Y $end
$var parameter 32 (" X_OFFSET $end
$var parameter 32 )" HORIZ_LEFT_BOUND $end
$var parameter 32 *" HORIZ_RIGHT_BOUND $end
$var parameter 2 +" RESET $end
$var parameter 2 ," MOVE $end
$var parameter 2 -" DEAD $end
$var parameter 2 ." INVALID $end
$var wire 1 c clka $end
$var wire 1 d clkb $end
$var wire 1 m reset $end
$var wire 1 l play $end
$var wire 1 t invader_direction $end
$var wire 1 u move_down $end
$var wire 1 M player_bullet_coord_x [3] $end
$var wire 1 N player_bullet_coord_x [2] $end
$var wire 1 O player_bullet_coord_x [1] $end
$var wire 1 P player_bullet_coord_x [0] $end
$var wire 1 Q player_bullet_coord_y [3] $end
$var wire 1 R player_bullet_coord_y [2] $end
$var wire 1 S player_bullet_coord_y [1] $end
$var wire 1 T player_bullet_coord_y [0] $end
$var reg 1 /" display $end
$var reg 1 0" playerbullet_invader_collision_signal $end
$var reg 4 1" invader_coord_x [3:0] $end
$var reg 4 2" invader_coord_y [3:0] $end
$var reg 1 3" invader_outofbounds_signal $end
$var reg 2 4" state [1:0] $end
$var reg 2 5" temp_state [1:0] $end
$var reg 2 6" next_state [1:0] $end
$var wire 1 7" collision_detect_x $end
$var wire 1 8" collision_detect_y $end
$var reg 1 9" move_interval_toggle $end

$scope begin FSM_SEQ $end
$upscope $end

$scope begin OUTPUT_LOGIC $end
$upscope $end
$upscope $end

$scope module invader_fsm_2 $end
$var parameter 4 :" START_X $end
$var parameter 4 ;" START_Y $end
$var parameter 32 <" Y_OFFSET $end
$var parameter 32 =" DEAD_X $end
$var parameter 32 >" DEAD_Y $end
$var parameter 32 ?" X_OFFSET $end
$var parameter 32 @" HORIZ_LEFT_BOUND $end
$var parameter 32 A" HORIZ_RIGHT_BOUND $end
$var parameter 2 B" RESET $end
$var parameter 2 C" MOVE $end
$var parameter 2 D" DEAD $end
$var parameter 2 E" INVALID $end
$var wire 1 c clka $end
$var wire 1 d clkb $end
$var wire 1 m reset $end
$var wire 1 l play $end
$var wire 1 t invader_direction $end
$var wire 1 u move_down $end
$var wire 1 M player_bullet_coord_x [3] $end
$var wire 1 N player_bullet_coord_x [2] $end
$var wire 1 O player_bullet_coord_x [1] $end
$var wire 1 P player_bullet_coord_x [0] $end
$var wire 1 Q player_bullet_coord_y [3] $end
$var wire 1 R player_bullet_coord_y [2] $end
$var wire 1 S player_bullet_coord_y [1] $end
$var wire 1 T player_bullet_coord_y [0] $end
$var reg 1 F" display $end
$var reg 1 G" playerbullet_invader_collision_signal $end
$var reg 4 H" invader_coord_x [3:0] $end
$var reg 4 I" invader_coord_y [3:0] $end
$var reg 1 J" invader_outofbounds_signal $end
$var reg 2 K" state [1:0] $end
$var reg 2 L" temp_state [1:0] $end
$var reg 2 M" next_state [1:0] $end
$var wire 1 N" collision_detect_x $end
$var wire 1 O" collision_detect_y $end
$var reg 1 P" move_interval_toggle $end

$scope begin FSM_SEQ $end
$upscope $end

$scope begin OUTPUT_LOGIC $end
$upscope $end
$upscope $end

$scope module player_bullet_fsm $end
$var parameter 32 Q" Y_OFFSET $end
$var parameter 32 R" Y_MAX $end
$var parameter 2 S" INIT $end
$var parameter 2 T" FIRING $end
$var wire 1 c clka $end
$var wire 1 d clkb $end
$var wire 1 m reset $end
$var wire 1 z fire $end
$var wire 1 ' player_coord_x [3] $end
$var wire 1 ( player_coord_x [2] $end
$var wire 1 ) player_coord_x [1] $end
$var wire 1 * player_coord_x [0] $end
$var wire 1 + player_coord_y [3] $end
$var wire 1 , player_coord_y [2] $end
$var wire 1 - player_coord_y [1] $end
$var wire 1 . player_coord_y [0] $end
$var wire 1 (! player_bullet_collision $end
$var wire 1 x shield_bullet_collision $end
$var reg 1 U" display $end
$var reg 4 V" player_bullet_coord_x [3:0] $end
$var reg 4 W" player_bullet_coord_y [3:0] $end
$var reg 1 X" state $end
$var reg 2 Y" temp_state [1:0] $end
$var reg 2 Z" next_state [1:0] $end
$var wire 1 [" collide $end
$var wire 1 \" boundary $end

$scope begin FSM_SEQA $end
$upscope $end

$scope begin FSM_SEQB $end
$upscope $end
$upscope $end

$scope module invader_bullet_fsm $end
$var parameter 32 ]" BULLET_Y_OFFSET $end
$var parameter 32 ^" BOUNDARY_Y $end
$var parameter 32 _" START_X $end
$var parameter 32 `" START_Y $end
$var parameter 2 a" INITIAL $end
$var parameter 2 b" FIRING $end
$var wire 1 c clka $end
$var wire 1 d clkb $end
$var wire 1 m reset $end
$var wire 1 v invaderbullet_player_collision_signal $end
$var wire 1 w invaderbullet_shield_collision_signal $end
$var wire 1 y invader_fire $end
$var wire 1 { closest_invader_coord_x [3] $end
$var wire 1 | closest_invader_coord_x [2] $end
$var wire 1 } closest_invader_coord_x [1] $end
$var wire 1 ~ closest_invader_coord_x [0] $end
$var wire 1 !! closest_invader_coord_y [3] $end
$var wire 1 "! closest_invader_coord_y [2] $end
$var wire 1 #! closest_invader_coord_y [1] $end
$var wire 1 $! closest_invader_coord_y [0] $end
$var reg 1 c" invader_bullet_display $end
$var reg 4 d" invader_bullet_coord_x [3:0] $end
$var reg 4 e" invader_bullet_coord_y [3:0] $end
$var reg 2 f" state [1:0] $end
$var reg 2 g" temp_state [1:0] $end
$var reg 2 h" next_state [1:0] $end

$scope begin OUTPUT_LOGIC $end
$upscope $end
$upscope $end
$upscope $end
$upscope $end
$enddefinitions $end
#0
$dumpvars
0!
0"
0#
0$
0%
0&
bx a
x1!
x2!
x3!
x4!
x5!
x6!
x7!
x8!
b0 9!
b0 :!
bx ;!
x=!
0R!
0S!
0T!
xU!
xV!
xW!
0_!
b111 `!
b0 a!
1b!
b0 c!
b0 d!
bx e!
bx s!
xt!
xu!
xv!
bx w!
bx x!
b0 y!
b0 z!
bx {!
x/"
x0"
bx 1"
bx 2"
x3"
bx 4"
bx 5"
bx 6"
x9"
xF"
xG"
bx H"
bx I"
xJ"
bx K"
bx L"
bx M"
xP"
xU"
bx V"
bx W"
0X"
b0 Y"
bx Z"
xc"
bx d"
bx e"
b0 f"
b0 g"
bx h"
b101 b
b0 )!
b1111 *!
b1 +!
b0 ,!
b0 -!
b1 .!
b10 /!
b11 0!
b10 X!
b1101 Y!
b111 Z!
b0 [!
b0 \!
b1 ]!
b10 ^!
b11 i!
b10 j!
b1 k!
b0 l!
b111 m!
b10 n!
b1 o!
b0 p!
b1 q!
b10 r!
b101 #"
b1101 $"
b10 %"
b101 &"
b101 '"
b1 ("
b10 )"
b1110 *"
b0 +"
b1 ,"
b10 -"
b11 ."
b1001 :"
b1101 ;"
b10 <"
b101 ="
b101 >"
b1 ?"
b10 @"
b1110 A"
b0 B"
b1 C"
b10 D"
b11 E"
b1 Q"
b1111 R"
b0 S"
b1 T"
b1 ]"
b0 ^"
b101 _"
b1110 `"
b0 a"
b1 b"
b10000000000000000000000000000011 _
bx `
1*
1)
1(
0'
0.
0-
0,
0+
1/
x3
x2
x1
x0
x7
x6
x5
x4
x8
x<
x;
x:
x9
x@
x?
x>
x=
xA
xE
xD
xC
xB
xI
xH
xG
xF
xK
xJ
xL
xP
xO
xN
xM
xT
xS
xR
xQ
xU
xY
xX
xW
xV
x]
x\
x[
xZ
x^
xl
xm
xn
xo
xp
xq
xr
xs
xt
xu
0v
xw
xx
xy
xz
x~
x}
x|
x{
x$!
x#!
x"!
x!!
z%!
x'!
x&!
x(!
x<!
xA!
x@!
x?!
x>!
xE!
xD!
xC!
xB!
xI!
xH!
xG!
xF!
xM!
xL!
xK!
xJ!
xQ!
xP!
xO!
xN!
xf!
xg!
xh!
x|!
x}!
x~!
x!"
z""
x7"
x8"
xN"
xO"
x["
x\"
0h
0g
0f
0e
0d
0c
0i
0k
0j
$end
#1000000
1!
1c
#2000000
0!
0c
b0 e!
b0 {!
b0 Z"
b0 h"
b0 ;!
0U!
0V!
0W!
#3000000
1"
1d
#4000000
b0 a
1#
0"
1e
0d
0c"
b111 V"
b0 W"
0U"
b11 s!
b111 w!
b10 x!
0u!
0v!
1t!
01!
02!
03!
14!
08!
15!
06!
07!
0=!
0^
0U
0I
1H
0G
0F
1E
1D
1C
0B
1K
1J
0T
0S
0R
0Q
1P
1O
1N
0M
0x
1L
0r
0s
1m
0u
1t
0!"
1~!
0\"
0w
0l
0z
0y
b0 5"
b0 L"
#5000000
1!
1c
#6000000
0!
0c
b0 6"
b0 M"
#7000000
1"
1d
#8000000
0#
1&
b0 `
0"
0e
1h
0d
b1 :!
b0 4"
b101 1"
b1101 2"
1/"
00"
09"
03"
b0 K"
b1001 H"
b1101 I"
1F"
0G"
0P"
0J"
b1000 V"
b10 W"
b1100 d"
b1110 e"
18
0n
0o
1A
0p
0q
0]
1\
1[
1Z
0Y
0X
1W
1V
1S
0P
0O
0N
1M
1@
0?
1>
1=
1<
0;
0:
19
17
06
15
14
13
02
11
00
1!"
0(!
0g!
0f!
0E!
1D!
0C!
0B!
0A!
1@!
0?!
0>!
1~
0}
1H!
1L!
1P!
07"
08"
1N"
0O"
0<!
0}!
0|!
1$!
0#!
1"!
1!!
1'!
1&!
0["
0h!
0M!
0K!
0J!
0I!
0G!
0F!
0Q!
0O!
0N!
0|
1{
#9000000
1!
1c
#10000000
0!
0c
b1 ;!
#11000000
1"
1d
#12000000
b1 `
0"
0d
04!
b1 9!
13!
17!
0m
1k
1l
1y
b1 g"
b1 d!
b1 z!
b1 5"
b1 L"
1T!
#13000000
1!
1c
#14000000
0!
0c
b1 e!
b1 {!
b1 6"
b1 M"
b1 h"
1W!
#15000000
1"
1d
#16000000
b10 `
0"
0d
b1 c!
b1 y!
1v!
b1 4"
19"
b1 K"
1P"
b111 V"
b0 W"
b1 f"
1c"
b1101 e"
16!
1x
1^
1]
0\
0S
1P
1O
1N
0M
0!"
1z
1["
0N"
b1 Y"
#17000000
1!
1c
#18000000
0!
0c
b1 Z"
#19000000
1"
1d
#20000000
b11 `
0"
0d
b1100 e"
1X"
b1 W"
1U"
0P"
b1010 H"
09"
b110 1"
0v!
1i
1U
03
12
0<
1;
1T
0]
0x
1A!
0@!
1E!
0~
1}
1M!
1I!
0H!
1Q!
0P!
1|
0{
17"
0["
#21000000
1!
1c
#22000000
0!
0c
#23000000
1"
1d
#24000000
b100 `
0&
b0 `
0"
0h
0d
0T!
19"
1P"
b10 W"
b1011 e"
1]
1\
0[
0T
1S
1!"
#25000000
1!
1c
#26000000
0!
0c
0W!
#27000000
1"
1d
#28000000
b1 `
0"
0d
06!
1v!
b1010 e"
b11 W"
0P"
b1011 H"
09"
b111 1"
1x
13
1<
1T
0]
0!"
0A!
0E!
0D!
1C!
1~
0M!
0L!
1K!
0I!
0Q!
0z
1["
b0 Y"
#29000000
1!
1c
#30000000
0!
0c
b0 Z"
#31000000
1"
1d
#32000000
b10 `
1&
b0 `
0"
1h
0d
1T!
19"
1P"
0X"
b0 W"
0U"
b1001 e"
0v!
0i
0U
1]
0\
0T
0S
0x
0["
#33000000
1!
1c
#34000000
0!
0c
1W!
#35000000
1"
1d
#36000000
b1 `
0"
0d
16!
b1000 e"
0P"
b1100 H"
09"
b1000 1"
03
02
01
10
0<
0;
1:
0]
1A!
1E!
0~
0}
0|
1{
1M!
1I!
1Q!
1z
b1 Y"
#37000000
1!
1c
#38000000
0!
0c
b1 Z"
#39000000
1"
1d
#40000000
b10 `
1%
b0 `
0"
1g
0d
1S!
1X"
b1 W"
1U"
19"
1P"
b111 e"
1i
1U
1]
1\
1[
0Z
1T
#41000000
1!
1c
#42000000
0!
0c
1V!
#43000000
1"
1d
#44000000
b1 `
0"
0d
12!
b110 e"
0P"
b1101 H"
1J"
09"
b1001 1"
b10 W"
1s
1q
0T
1S
13
1<
0]
1!"
0A!
1@!
0E!
1D!
1~
0M!
1L!
0I!
1H!
0Q!
1P!
07"
1<!
b10 :!
#45000000
1!
1c
#46000000
0!
0c
b10 ;!
#47000000
1"
1d
#48000000
b10 `
0"
0d
1v!
b1000 `!
b11 W"
19"
1P"
b101 e"
b10 9!
05!
18!
1=!
1x
0k
1j
1]
0\
1T
0*
0)
0(
1'
0t
1u
0!"
1A!
0@!
1E!
0D!
1M!
0L!
1I!
0H!
1Q!
0P!
1["
b0 Y"
b1 :!
#49000000
1!
1c
#50000000
0!
0c
b0 Z"
b1 ;!
#51000000
1"
1d
#52000000
b11 `
0"
0d
b1 9!
08!
b100 e"
0P"
b1011 I"
09"
b1011 2"
0X"
b1000 V"
b0 W"
0U"
b1001 `!
0v!
0u
0i
0U
1*
0T
0S
0P
0O
0N
1M
16
05
1?
0>
0]
1k
0j
0x
0A!
0E!
0M!
0I!
0Q!
17"
1#!
0"!
0["
b1 Y"
#53000000
1!
1c
#54000000
0!
0c
b1 Z"
#55000000
1"
1d
#56000000
b100 `
0"
0d
b1010 `!
1X"
b1 W"
1U"
19"
1P"
b11 e"
1i
1U
1]
1\
0[
1T
0*
1)
1A!
1E!
1D!
0C!
1M!
1L!
0K!
1I!
1Q!
#57000000
1!
1c
#58000000
0!
0c
#59000000
1"
1d
#60000000
b101 `
0"
0d
b10 e"
0P"
b1100 H"
0J"
09"
b1000 1"
b10 W"
b1011 `!
0q
1f!
1*
0T
1S
03
0<
0]
1!"
1@!
0D!
0~
0L!
1H!
1|
0<!
1}!
#61000000
1!
1c
#62000000
0!
0c
#63000000
1"
1d
#64000000
b110 `
b0 `
0"
0d
0=!
1v!
b1100 `!
b11 W"
19"
1P"
b1 e"
1x
1]
0\
1T
0*
0)
1(
0!"
1g!
0A!
0@!
1?!
0E!
0M!
0I!
0H!
1G!
0Q!
1["
0}!
1h!
b10 d!
b0 Y"
#65000000
1!
1c
#66000000
0!
0c
b0 Z"
b10 e!
#67000000
1"
1d
#68000000
b1 `
0"
0d
b0 e"
0P"
b1011 H"
09"
b111 1"
0X"
b1100 V"
b0 W"
0U"
b10 c!
0b!
1_!
0v!
0i
0U
0T
0S
1N
13
12
11
00
1<
1;
0:
0]
0x
0~!
1A!
1E!
1~
1}
0|
1M!
1I!
1Q!
1N"
07"
0/
1v
0["
b0 :!
0S!
0T!
b1 Y"
b0 g"
#69000000
1!
1c
#70000000
0!
0c
b0 h"
b0 ;!
0V!
0W!
b1 Z"
#71000000
1"
1d
#72000000
b10 `
0"
0d
b0 9!
15!
03!
14!
02!
06!
1X"
b1 W"
1U"
19"
1P"
b0 f"
0c"
b1011 d"
b1011 e"
1t
1m
0s
1i
1U
0^
1]
1\
1Z
1Y
1X
0W
1T
0k
0g!
0l
0z
0h!
b1 g"
b1 :!
#73000000
1!
1c
#74000000
0!
0c
b0 e!
b0 {!
b0 6"
b0 M"
b0 Z"
b1 ;!
#75000000
1"
1d
