No_Datapath_less_outputs/Synthesis/top_results.vcd
$date
	Mon Apr 20 21:50:09 2026
$end
$version
	QuestaSim Version 2023.2
$end
$timescale
	1ps
$end

$scope module top_tb_coords $end
$var reg 1 ! in_clka $end
$var reg 1 " in_clkb $end
$var reg 1 # in_reset $end
$var reg 1 $ in_player_left_input $end
$var reg 1 % in_player_right_input $end
$var reg 1 & in_fire $end
$var wire 1 ' player_coord_x [3] $end
$var wire 1 ( player_coord_x [2] $end
$var wire 1 ) player_coord_x [1] $end
$var wire 1 * player_coord_x [0] $end
$var wire 1 + player_coord_y [3] $end
$var wire 1 , player_coord_y [2] $end
$var wire 1 - player_coord_y [1] $end
$var wire 1 . player_coord_y [0] $end
$var wire 1 / player_display $end
$var wire 1 0 invader_1_coord_x [3] $end
$var wire 1 1 invader_1_coord_x [2] $end
$var wire 1 2 invader_1_coord_x [1] $end
$var wire 1 3 invader_1_coord_x [0] $end
$var wire 1 4 invader_1_coord_y [3] $end
$var wire 1 5 invader_1_coord_y [2] $end
$var wire 1 6 invader_1_coord_y [1] $end
$var wire 1 7 invader_1_coord_y [0] $end
$var wire 1 8 invader_1_display $end
$var wire 1 9 invader_2_coord_x [3] $end
$var wire 1 : invader_2_coord_x [2] $end
$var wire 1 ; invader_2_coord_x [1] $end
$var wire 1 < invader_2_coord_x [0] $end
$var wire 1 = invader_2_coord_y [3] $end
$var wire 1 > invader_2_coord_y [2] $end
$var wire 1 ? invader_2_coord_y [1] $end
$var wire 1 @ invader_2_coord_y [0] $end
$var wire 1 A invader_2_display $end
$var wire 1 B shield_coord_x [3] $end
$var wire 1 C shield_coord_x [2] $end
$var wire 1 D shield_coord_x [1] $end
$var wire 1 E shield_coord_x [0] $end
$var wire 1 F shield_coord_y [3] $end
$var wire 1 G shield_coord_y [2] $end
$var wire 1 H shield_coord_y [1] $end
$var wire 1 I shield_coord_y [0] $end
$var wire 1 J shield_hp [1] $end
$var wire 1 K shield_hp [0] $end
$var wire 1 L shield_display $end
$var wire 1 M player_bullet_coord_x [3] $end
$var wire 1 N player_bullet_coord_x [2] $end
$var wire 1 O player_bullet_coord_x [1] $end
$var wire 1 P player_bullet_coord_x [0] $end
$var wire 1 Q player_bullet_coord_y [3] $end
$var wire 1 R player_bullet_coord_y [2] $end
$var wire 1 S player_bullet_coord_y [1] $end
$var wire 1 T player_bullet_coord_y [0] $end
$var wire 1 U player_bullet_display $end
$var wire 1 V invader_bullet_coord_x [3] $end
$var wire 1 W invader_bullet_coord_x [2] $end
$var wire 1 X invader_bullet_coord_x [1] $end
$var wire 1 Y invader_bullet_coord_x [0] $end
$var wire 1 Z invader_bullet_coord_y [3] $end
$var wire 1 [ invader_bullet_coord_y [2] $end
$var wire 1 \ invader_bullet_coord_y [1] $end
$var wire 1 ] invader_bullet_coord_y [0] $end
$var wire 1 ^ invader_bullet_display $end
$var integer 32 _ log_file $end
$var integer 32 ` i $end

$scope task log_matrix $end
$var reg 256 a test_name [255:0] $end
$upscope $end

$scope task cycle $end
$upscope $end

$scope module U1 $end
$var parameter 32 b START_X $end
$var wire 1 c clka $end
$var wire 1 d clkb $end
$var wire 1 e reset $end
$var wire 1 f player_left_input $end
$var wire 1 g player_right_input $end
$var wire 1 h player_shoot_input $end
$var wire 1 ' player_coord_x [3] $end
$var wire 1 ( player_coord_x [2] $end
$var wire 1 ) player_coord_x [1] $end
$var wire 1 * player_coord_x [0] $end
$var wire 1 / player_display $end
$var wire 1 0 invader_1_coord_x [3] $end
$var wire 1 1 invader_1_coord_x [2] $end
$var wire 1 2 invader_1_coord_x [1] $end
$var wire 1 3 invader_1_coord_x [0] $end
$var wire 1 4 invader_1_coord_y [3] $end
$var wire 1 5 invader_1_coord_y [2] $end
$var wire 1 6 invader_1_coord_y [1] $end
$var wire 1 7 invader_1_coord_y [0] $end
$var wire 1 8 invader_1_display $end
$var wire 1 9 invader_2_coord_x [3] $end
$var wire 1 : invader_2_coord_x [2] $end
$var wire 1 ; invader_2_coord_x [1] $end
$var wire 1 < invader_2_coord_x [0] $end
$var wire 1 = invader_2_coord_y [3] $end
$var wire 1 > invader_2_coord_y [2] $end
$var wire 1 ? invader_2_coord_y [1] $end
$var wire 1 @ invader_2_coord_y [0] $end
$var wire 1 A invader_2_display $end
$var wire 1 B shield_coord_x [3] $end
$var wire 1 C shield_coord_x [2] $end
$var wire 1 D shield_coord_x [1] $end
$var wire 1 E shield_coord_x [0] $end
$var wire 1 F shield_coord_y [3] $end
$var wire 1 G shield_coord_y [2] $end
$var wire 1 H shield_coord_y [1] $end
$var wire 1 I shield_coord_y [0] $end
$var wire 1 J shield_hp [1] $end
$var wire 1 K shield_hp [0] $end
$var wire 1 M player_bullet_coord_x [3] $end
$var wire 1 N player_bullet_coord_x [2] $end
$var wire 1 O player_bullet_coord_x [1] $end
$var wire 1 P player_bullet_coord_x [0] $end
$var wire 1 Q player_bullet_coord_y [3] $end
$var wire 1 R player_bullet_coord_y [2] $end
$var wire 1 S player_bullet_coord_y [1] $end
$var wire 1 T player_bullet_coord_y [0] $end
$var wire 1 U player_bullet_display $end
$var wire 1 V invader_bullet_coord_x [3] $end
$var wire 1 W invader_bullet_coord_x [2] $end
$var wire 1 X invader_bullet_coord_x [1] $end
$var wire 1 Y invader_bullet_coord_x [0] $end
$var wire 1 Z invader_bullet_coord_y [3] $end
$var wire 1 [ invader_bullet_coord_y [2] $end
$var wire 1 \ invader_bullet_coord_y [1] $end
$var wire 1 ] invader_bullet_coord_y [0] $end
$var wire 1 ^ invader_bullet_display $end
$var wire 1 i play $end
$var wire 1 j internal_reset $end
$var wire 1 k playerbullet_invader_collision_signal_1 $end
$var wire 1 l invader_outofbounds_signal_1 $end
$var wire 1 m playerbullet_invader_collision_signal_2 $end
$var wire 1 n invader_outofbounds_signal_2 $end
$var wire 1 o player_left_motion $end
$var wire 1 p player_right_motion $end
$var wire 1 q invader_direction $end
$var wire 1 r move_down $end
$var wire 1 s invaderbullet_player_collision_signal $end
$var wire 1 t invaderbullet_shield_collision_signal $end
$var wire 1 u playerbullet_shield_collision_signal $end
$var wire 1 v invader_fire $end
$var wire 1 w playerbullet_fire $end
$var wire 1 x closest_invader_coord_x [3] $end
$var wire 1 y closest_invader_coord_x [2] $end
$var wire 1 z closest_invader_coord_x [1] $end
$var wire 1 { closest_invader_coord_x [0] $end
$var wire 1 | closest_invader_coord_y [3] $end
$var wire 1 } closest_invader_coord_y [2] $end
$var wire 1 ~ closest_invader_coord_y [1] $end
$var wire 1 !! closest_invader_coord_y [0] $end
$var wire 1 "! player_bullet_collision $end
$var wire 1 #! invaders_display [1] $end
$var wire 1 $! invaders_display [0] $end
$var wire 1 %! playerbullet_invader_collision_signal $end
$var wire 1 &! player_coord_y [3] $end
$var wire 1 '! player_coord_y [2] $end
$var wire 1 (! player_coord_y [1] $end
$var wire 1 )! player_coord_y [0] $end
$var wire 1 *! shield_display $end
$var wire 1 +! playerbullet_state $end
$var wire 1 ,! main_game_stat [1] $end
$var wire 1 -! main_game_stat [0] $end
$var wire 1 .! main_game_state $end

$scope module main_game_fsm $end
$var parameter 4 /! BOTTOM_BOUND $end
$var parameter 4 0! TOP_BOUND $end
$var parameter 32 1! DIRECTION_RIGHT $end
$var parameter 32 2! DIRECTION_LEFT $end
$var parameter 2 3! INIT $end
$var parameter 2 4! IN_GAME $end
$var parameter 2 5! DIRECTION_CHANGE $end
$var parameter 2 6! END_GAME $end
$var wire 1 c clka $end
$var wire 1 d clkb $end
$var wire 1 e global_reset $end
$var wire 1 f player_left_input $end
$var wire 1 g player_right_input $end
$var wire 1 h player_shoot_input $end
$var wire 1 / player_display $end
$var wire 1 ' player_coordinate_x [3] $end
$var wire 1 ( player_coordinate_x [2] $end
$var wire 1 ) player_coordinate_x [1] $end
$var wire 1 * player_coordinate_x [0] $end
$var wire 1 &! player_coordinate_y [3] $end
$var wire 1 '! player_coordinate_y [2] $end
$var wire 1 (! player_coordinate_y [1] $end
$var wire 1 )! player_coordinate_y [0] $end
$var wire 1 #! invaders_display [1] $end
$var wire 1 $! invaders_display [0] $end
$var wire 1 0 invader1_coordinate_x [3] $end
$var wire 1 1 invader1_coordinate_x [2] $end
$var wire 1 2 invader1_coordinate_x [1] $end
$var wire 1 3 invader1_coordinate_x [0] $end
$var wire 1 4 invader1_coordinate_y [3] $end
$var wire 1 5 invader1_coordinate_y [2] $end
$var wire 1 6 invader1_coordinate_y [1] $end
$var wire 1 7 invader1_coordinate_y [0] $end
$var wire 1 9 invader2_coordinate_x [3] $end
$var wire 1 : invader2_coordinate_x [2] $end
$var wire 1 ; invader2_coordinate_x [1] $end
$var wire 1 < invader2_coordinate_x [0] $end
$var wire 1 = invader2_coordinate_y [3] $end
$var wire 1 > invader2_coordinate_y [2] $end
$var wire 1 ? invader2_coordinate_y [1] $end
$var wire 1 @ invader2_coordinate_y [0] $end
$var wire 1 V invaderbullet_coord_x [3] $end
$var wire 1 W invaderbullet_coord_x [2] $end
$var wire 1 X invaderbullet_coord_x [1] $end
$var wire 1 Y invaderbullet_coord_x [0] $end
$var wire 1 Z invaderbullet_coord_y [3] $end
$var wire 1 [ invaderbullet_coord_y [2] $end
$var wire 1 \ invaderbullet_coord_y [1] $end
$var wire 1 ] invaderbullet_coord_y [0] $end
$var wire 1 s invaderbullet_player_collision_signal $end
$var wire 1 t invaderbullet_shield_collision_signal $end
$var wire 1 l invader_outofbounds_signal_1 $end
$var wire 1 n invader_outofbounds_signal_2 $end
$var reg 1 7! player_left_motion $end
$var reg 1 8! player_right_motion $end
$var wire 1 x closest_invader_coord_x [3] $end
$var wire 1 y closest_invader_coord_x [2] $end
$var wire 1 z closest_invader_coord_x [1] $end
$var wire 1 { closest_invader_coord_x [0] $end
$var wire 1 | closest_invader_coord_y [3] $end
$var wire 1 } closest_invader_coord_y [2] $end
$var wire 1 ~ closest_invader_coord_y [1] $end
$var wire 1 !! closest_invader_coord_y [0] $end
$var reg 1 9! play $end
$var reg 1 :! reset $end
$var reg 1 ;! invader_direction $end
$var reg 1 <! playerbullet_fire $end
$var reg 1 =! invaderbullet_fire $end
$var reg 1 >! move_down $end
$var reg 2 ?! state [1:0] $end
$var reg 2 @! temp_state [1:0] $end
$var reg 2 A! next_state [1:0] $end
$var wire 1 B! invader_outofbounds $end
$var reg 1 C! prev_invader_outofbounds $end
$var wire 1 D! diff1 [3] $end
$var wire 1 E! diff1 [2] $end
$var wire 1 F! diff1 [1] $end
$var wire 1 G! diff1 [0] $end
$var wire 1 H! diff2 [3] $end
$var wire 1 I! diff2 [2] $end
$var wire 1 J! diff2 [1] $end
$var wire 1 K! diff2 [0] $end
$var wire 1 L! diff_alive1 [3] $end
$var wire 1 M! diff_alive1 [2] $end
$var wire 1 N! diff_alive1 [1] $end
$var wire 1 O! diff_alive1 [0] $end
$var wire 1 P! diff_alive2 [3] $end
$var wire 1 Q! diff_alive2 [2] $end
$var wire 1 R! diff_alive2 [1] $end
$var wire 1 S! diff_alive2 [0] $end
$var wire 1 T! min_diff_12 [3] $end
$var wire 1 U! min_diff_12 [2] $end
$var wire 1 V! min_diff_12 [1] $end
$var wire 1 W! min_diff_12 [0] $end
$var reg 1 X! temp_player_left_motion $end
$var reg 1 Y! temp_player_right_motion $end
$var reg 1 Z! temp_playerbullet_fire $end
$var reg 1 [! next_player_left_motion $end
$var reg 1 \! next_player_right_motion $end
$var reg 1 ]! next_playerbullet_fire $end

$scope begin FSM_SEQA $end
$upscope $end

$scope begin FSM_SEQB $end
$upscope $end
$upscope $end

$scope module player_fsm $end
$var parameter 4 ^! LEFT_BOUND $end
$var parameter 4 _! RIGHT_BOUND $end
$var parameter 4 `! X_START $end
$var parameter 4 a! Y_START $end
$var parameter 2 b! INIT $end
$var parameter 2 c! PLAY $end
$var parameter 2 d! DEAD $end
$var wire 1 c clka $end
$var wire 1 d clkb $end
$var wire 1 j reset $end
$var wire 1 i play $end
$var wire 1 V invader_bullet_coord_x [3] $end
$var wire 1 W invader_bullet_coord_x [2] $end
$var wire 1 X invader_bullet_coord_x [1] $end
$var wire 1 Y invader_bullet_coord_x [0] $end
$var wire 1 Z invader_bullet_coord_y [3] $end
$var wire 1 [ invader_bullet_coord_y [2] $end
$var wire 1 \ invader_bullet_coord_y [1] $end
$var wire 1 ] invader_bullet_coord_y [0] $end
$var wire 1 o player_left_input $end
$var wire 1 p player_right_input $end
$var reg 1 e! invaderbullet_player_collision_signal $end
$var reg 4 f! player_coord_x [3:0] $end
$var reg 4 g! player_coord_y [3:0] $end
$var reg 1 h! display $end
$var reg 2 i! state [1:0] $end
$var reg 2 j! temp_state [1:0] $end
$var reg 2 k! next_state [1:0] $end
$var wire 1 l! intersection_x $end
$var wire 1 m! intersection_y $end
$var wire 1 n! intersection $end

$scope begin FSM_SEQA $end
$upscope $end

$scope begin FSM_SEQB $end
$upscope $end
$upscope $end

$scope module shield_fsm $end
$var parameter 32 o! HP_3 $end
$var parameter 32 p! HP_2 $end
$var parameter 32 q! HP_1 $end
$var parameter 32 r! HP_0 $end
$var parameter 4 s! START_X $end
$var parameter 4 t! START_Y $end
$var parameter 32 u! SHIELD_DIAMETER $end
$var parameter 2 v! INITIAL $end
$var parameter 2 w! ALIVE $end
$var parameter 2 x! NO_HEALTH $end
$var wire 1 c clka $end
$var wire 1 d clkb $end
$var wire 1 j reset $end
$var wire 1 V invader_bullet_coord_x [3] $end
$var wire 1 W invader_bullet_coord_x [2] $end
$var wire 1 X invader_bullet_coord_x [1] $end
$var wire 1 Y invader_bullet_coord_x [0] $end
$var wire 1 Z invader_bullet_coord_y [3] $end
$var wire 1 [ invader_bullet_coord_y [2] $end
$var wire 1 \ invader_bullet_coord_y [1] $end
$var wire 1 ] invader_bullet_coord_y [0] $end
$var wire 1 M player_bullet_coord_x [3] $end
$var wire 1 N player_bullet_coord_x [2] $end
$var wire 1 O player_bullet_coord_x [1] $end
$var wire 1 P player_bullet_coord_x [0] $end
$var wire 1 Q player_bullet_coord_y [3] $end
$var wire 1 R player_bullet_coord_y [2] $end
$var wire 1 S player_bullet_coord_y [1] $end
$var wire 1 T player_bullet_coord_y [0] $end
$var wire 1 i shield_play $end
$var reg 2 y! hp [1:0] $end
$var reg 1 z! shield_display $end
$var reg 1 {! invaderbullet_shield_collision $end
$var reg 1 |! playerbullet_shield_collision $end
$var reg 4 }! shield_coord_x [3:0] $end
$var reg 4 ~! shield_coord_y [3:0] $end
$var reg 2 !" state [1:0] $end
$var reg 2 "" temp_state [1:0] $end
$var reg 2 #" next_state [1:0] $end
$var wire 1 $" invaderbullet_collision_x $end
$var wire 1 %" invaderbullet_collision_y $end
$var wire 1 &" playerbullet_collision_x $end
$var wire 1 '" playerbullet_collision_y $end
$var wire 1 (" playerbullet_shield_distance $end
$upscope $end

$scope module invader_fsm_1 $end
$var parameter 4 )" START_X $end
$var parameter 4 *" START_Y $end
$var parameter 32 +" Y_OFFSET $end
$var parameter 32 ," DEAD_X $end
$var parameter 32 -" DEAD_Y $end
$var parameter 32 ." X_OFFSET $end
$var parameter 32 /" HORIZ_LEFT_BOUND $end
$var parameter 32 0" HORIZ_RIGHT_BOUND $end
$var parameter 2 1" RESET $end
$var parameter 2 2" MOVE $end
$var parameter 2 3" DEAD $end
$var parameter 2 4" INVALID $end
$var wire 1 c clka $end
$var wire 1 d clkb $end
$var wire 1 j reset $end
$var wire 1 i play $end
$var wire 1 q invader_direction $end
$var wire 1 r move_down $end
$var wire 1 M player_bullet_coord_x [3] $end
$var wire 1 N player_bullet_coord_x [2] $end
$var wire 1 O player_bullet_coord_x [1] $end
$var wire 1 P player_bullet_coord_x [0] $end
$var wire 1 Q player_bullet_coord_y [3] $end
$var wire 1 R player_bullet_coord_y [2] $end
$var wire 1 S player_bullet_coord_y [1] $end
$var wire 1 T player_bullet_coord_y [0] $end
$var reg 1 5" display $end
$var reg 1 6" playerbullet_invader_collision_signal $end
$var reg 4 7" invader_coord_x [3:0] $end
$var reg 4 8" invader_coord_y [3:0] $end
$var reg 1 9" invader_outofbounds_signal $end
$var reg 2 :" state [1:0] $end
$var reg 2 ;" temp_state [1:0] $end
$var reg 2 <" next_state [1:0] $end
$var wire 1 =" collision_detect_x $end
$var wire 1 >" collision_detect_y $end
$var reg 1 ?" move_interval_toggle $end

$scope begin FSM_SEQ $end
$upscope $end

$scope begin OUTPUT_LOGIC $end
$upscope $end
$upscope $end

$scope module invader_fsm_2 $end
$var parameter 4 @" START_X $end
$var parameter 4 A" START_Y $end
$var parameter 32 B" Y_OFFSET $end
$var parameter 32 C" DEAD_X $end
$var parameter 32 D" DEAD_Y $end
$var parameter 32 E" X_OFFSET $end
$var parameter 32 F" HORIZ_LEFT_BOUND $end
$var parameter 32 G" HORIZ_RIGHT_BOUND $end
$var parameter 2 H" RESET $end
$var parameter 2 I" MOVE $end
$var parameter 2 J" DEAD $end
$var parameter 2 K" INVALID $end
$var wire 1 c clka $end
$var wire 1 d clkb $end
$var wire 1 j reset $end
$var wire 1 i play $end
$var wire 1 q invader_direction $end
$var wire 1 r move_down $end
$var wire 1 M player_bullet_coord_x [3] $end
$var wire 1 N player_bullet_coord_x [2] $end
$var wire 1 O player_bullet_coord_x [1] $end
$var wire 1 P player_bullet_coord_x [0] $end
$var wire 1 Q player_bullet_coord_y [3] $end
$var wire 1 R player_bullet_coord_y [2] $end
$var wire 1 S player_bullet_coord_y [1] $end
$var wire 1 T player_bullet_coord_y [0] $end
$var reg 1 L" display $end
$var reg 1 M" playerbullet_invader_collision_signal $end
$var reg 4 N" invader_coord_x [3:0] $end
$var reg 4 O" invader_coord_y [3:0] $end
$var reg 1 P" invader_outofbounds_signal $end
$var reg 2 Q" state [1:0] $end
$var reg 2 R" temp_state [1:0] $end
$var reg 2 S" next_state [1:0] $end
$var wire 1 T" collision_detect_x $end
$var wire 1 U" collision_detect_y $end
$var reg 1 V" move_interval_toggle $end

$scope begin FSM_SEQ $end
$upscope $end

$scope begin OUTPUT_LOGIC $end
$upscope $end
$upscope $end

$scope module player_bullet_fsm $end
$var parameter 32 W" Y_OFFSET $end
$var parameter 32 X" Y_MAX $end
$var parameter 2 Y" INIT $end
$var parameter 2 Z" FIRING $end
$var wire 1 c clka $end
$var wire 1 d clkb $end
$var wire 1 j reset $end
$var wire 1 w fire $end
$var wire 1 ' player_coord_x [3] $end
$var wire 1 ( player_coord_x [2] $end
$var wire 1 ) player_coord_x [1] $end
$var wire 1 * player_coord_x [0] $end
$var wire 1 &! player_coord_y [3] $end
$var wire 1 '! player_coord_y [2] $end
$var wire 1 (! player_coord_y [1] $end
$var wire 1 )! player_coord_y [0] $end
$var wire 1 %! player_bullet_collision $end
$var wire 1 u shield_bullet_collision $end
$var reg 1 [" display $end
$var reg 4 \" player_bullet_coord_x [3:0] $end
$var reg 4 ]" player_bullet_coord_y [3:0] $end
$var reg 1 ^" state $end
$var reg 2 _" temp_state [1:0] $end
$var reg 2 `" next_state [1:0] $end
$var wire 1 a" collide $end
$var wire 1 b" boundary $end

$scope begin FSM_SEQA $end
$upscope $end

$scope begin FSM_SEQB $end
$upscope $end
$upscope $end

$scope module invader_bullet_fsm $end
$var parameter 32 c" BULLET_Y_OFFSET $end
$var parameter 32 d" BOUNDARY_Y $end
$var parameter 32 e" START_X $end
$var parameter 32 f" START_Y $end
$var parameter 2 g" INITIAL $end
$var parameter 2 h" FIRING $end
$var wire 1 c clka $end
$var wire 1 d clkb $end
$var wire 1 j reset $end
$var wire 1 s invaderbullet_player_collision_signal $end
$var wire 1 t invaderbullet_shield_collision_signal $end
$var wire 1 v invader_fire $end
$var wire 1 x closest_invader_coord_x [3] $end
$var wire 1 y closest_invader_coord_x [2] $end
$var wire 1 z closest_invader_coord_x [1] $end
$var wire 1 { closest_invader_coord_x [0] $end
$var wire 1 | closest_invader_coord_y [3] $end
$var wire 1 } closest_invader_coord_y [2] $end
$var wire 1 ~ closest_invader_coord_y [1] $end
$var wire 1 !! closest_invader_coord_y [0] $end
$var reg 1 i" invader_bullet_display $end
$var reg 4 j" invader_bullet_coord_x [3:0] $end
$var reg 4 k" invader_bullet_coord_y [3:0] $end
$var reg 2 l" state [1:0] $end
$var reg 2 m" temp_state [1:0] $end
$var reg 2 n" next_state [1:0] $end

$scope begin OUTPUT_LOGIC $end
$upscope $end
$upscope $end
$upscope $end
$upscope $end
$enddefinitions $end
#0
$dumpvars
0!
0"
0#
0$
0%
0&
bx a
x7!
x8!
x9!
x:!
x;!
x<!
x=!
x>!
b0 ?!
b0 @!
bx A!
xC!
0X!
0Y!
0Z!
x[!
x\!
x]!
0e!
b111 f!
b0 g!
1h!
b0 i!
b0 j!
bx k!
bx y!
xz!
x{!
x|!
bx }!
bx ~!
b0 !"
b0 ""
bx #"
x5"
x6"
bx 7"
bx 8"
x9"
bx :"
bx ;"
bx <"
x?"
xL"
xM"
bx N"
bx O"
xP"
bx Q"
bx R"
bx S"
xV"
x["
bx \"
bx ]"
0^"
b0 _"
bx `"
xi"
bx j"
bx k"
b0 l"
b0 m"
bx n"
b101 b
b0 /!
b1111 0!
b1 1!
b0 2!
b0 3!
b1 4!
b10 5!
b11 6!
b10 ^!
b1101 _!
b111 `!
b0 a!
b0 b!
b1 c!
b10 d!
b11 o!
b10 p!
b1 q!
b0 r!
b111 s!
b100 t!
b10 u!
b0 v!
b1 w!
b10 x!
b101 )"
b1101 *"
b10 +"
b101 ,"
b101 -"
b1 ."
b10 /"
b1110 0"
b0 1"
b1 2"
b10 3"
b11 4"
b1001 @"
b1101 A"
b10 B"
b101 C"
b101 D"
b1 E"
b10 F"
b1110 G"
b0 H"
b1 I"
b10 J"
b11 K"
b1 W"
b1111 X"
b0 Y"
b1 Z"
b1 c"
b0 d"
b1001 e"
b1101 f"
b0 g"
b1 h"
b10000000000000000000000000000011 _
bx `
1*
1)
1(
0'
z.
z-
z,
z+
1/
x3
x2
x1
x0
x7
x6
x5
x4
x8
x<
x;
x:
x9
x@
x?
x>
x=
xA
xE
xD
xC
xB
xI
xH
xG
xF
xK
xJ
zL
xP
xO
xN
xM
xT
xS
xR
xQ
xU
xY
xX
xW
xV
x]
x\
x[
xZ
x^
xi
xj
xk
xl
xm
xn
xo
xp
xq
xr
0s
xt
xu
xv
xw
x{
xz
xy
xx
x!!
x~
x}
x|
z"!
x$!
x#!
x%!
0)!
0(!
0'!
0&!
x*!
0+!
z-!
z,!
0.!
xB!
xG!
xF!
xE!
xD!
xK!
xJ!
xI!
xH!
xO!
xN!
xM!
xL!
xS!
xR!
xQ!
xP!
xW!
xV!
xU!
xT!
xl!
xm!
xn!
x$"
x%"
x&"
x'"
z("
x="
x>"
xT"
xU"
xa"
xb"
0h
0g
0f
0e
0d
0c
$end
#1000000
1!
1c
#2000000
0!
0c
b0 k!
b0 #"
b0 `"
b0 n"
b0 A!
0[!
0\!
0]!
#3000000
1"
1d
#4000000
b0 a
1#
0"
1e
0d
0i"
b111 \"
b0 ]"
0["
b11 y!
b111 }!
b100 ~!
0{!
0|!
1z!
07!
08!
09!
1:!
0>!
1;!
0<!
0=!
0C!
0^
0U
0I
0H
1G
0F
1E
1D
1C
0B
1K
1J
0T
0S
0R
0Q
1P
1O
1N
0M
0u
1*!
0o
0p
1j
0r
1q
0'"
1&"
0b"
0t
0i
0w
0v
b0 ;"
b0 R"
#5000000
1!
1c
#6000000
0!
0c
b0 <"
b0 S"
#7000000
1"
1d
#8000000
0#
1&
b0 `
0"
0e
1h
0d
b1 @!
b0 :"
b101 7"
b1101 8"
15"
06"
0?"
09"
b0 Q"
b1001 N"
b1101 O"
1L"
0M"
0V"
0P"
b1000 \"
b10 ]"
b1001 j"
b1101 k"
18
0k
0l
1A
0m
0n
1]
0\
1[
1Z
1Y
0X
0W
1V
1S
0P
0O
0N
1M
1@
0?
1>
1=
1<
0;
0:
19
17
06
15
14
13
02
11
00
0%!
0m!
0l!
0K!
1J!
0I!
0H!
0G!
1F!
0E!
0D!
1{
0z
1N!
1R!
1V!
0="
0>"
1T"
0U"
0B!
0%"
1$"
1!!
0~
1}
1|
1$!
1#!
0a"
0n!
0S!
0Q!
0P!
0O!
0M!
0L!
0W!
0U!
0T!
0y
1x
#9000000
1!
1c
#10000000
0!
0c
b1 A!
#11000000
1"
1d
#12000000
b1 `
0"
0d
0:!
b1 ?!
19!
1=!
0j
1.!
1i
1v
b1 m"
b1 j!
b1 ""
b1 ;"
b1 R"
1Z!
#13000000
1!
1c
#14000000
0!
0c
b1 k!
b1 #"
b1 <"
b1 S"
b1 n"
1]!
#15000000
1"
1d
#16000000
b10 `
0"
0d
b1 i!
b1 !"
b1 :"
1?"
b1 Q"
1V"
b111 \"
b0 ]"
b1 l"
1i"
b1100 k"
1<!
1^
0]
0S
1P
1O
1N
0M
1w
0T"
b1 _"
#17000000
1!
1c
#18000000
0!
0c
b1 `"
#19000000
1"
1d
#20000000
b11 `
0"
0d
b1011 k"
1^"
b1 ]"
1["
0V"
b1010 N"
0?"
b110 7"
1+!
1U
03
12
0<
1;
1T
1]
1\
0[
1G!
0F!
1K!
0{
1z
1S!
1O!
0N!
1W!
0V!
1y
0x
1="
#21000000
1!
1c
#22000000
0!
0c
#23000000
1"
1d
#24000000
b100 `
0&
b0 `
0"
0h
0d
0Z!
1?"
1V"
b10 ]"
b1010 k"
0]
0T
1S
#25000000
1!
1c
#26000000
0!
0c
0]!
#27000000
1"
1d
#28000000
b1 `
0"
0d
0<!
b1001 k"
b11 ]"
0V"
b1011 N"
0?"
b111 7"
13
1<
1T
1]
0\
0G!
0K!
0J!
1I!
1{
0S!
0R!
1Q!
0O!
0W!
0w
#29000000
1!
1c
#30000000
0!
0c
#31000000
1"
1d
#32000000
b10 `
1&
b0 `
0"
1h
0d
1Z!
1?"
1V"
b100 ]"
b1000 k"
0]
0T
0S
1R
1'"
#33000000
1!
1c
#34000000
0!
0c
1]!
#35000000
1"
1d
#36000000
b1 `
0"
0d
1<!
1|!
b111 k"
b101 ]"
0V"
b1100 N"
0?"
b1000 7"
1u
03
02
01
10
0<
0;
1:
1T
1]
1\
1[
0Z
0'"
1G!
1K!
0{
0z
0y
1x
1S!
1O!
1W!
1w
1a"
b0 _"
#37000000
1!
1c
#38000000
0!
0c
b0 `"
#39000000
1"
1d
#40000000
b10 `
1%
b0 `
0"
1g
0d
1Y!
1?"
1V"
0^"
b0 ]"
0["
b110 k"
0|!
0+!
0U
0]
0T
0R
0u
0a"
b1 _"
#41000000
1!
1c
#42000000
0!
0c
1\!
b1 `"
#43000000
1"
1d
#44000000
b1 `
0"
0d
18!
b101 k"
1^"
b1 ]"
1["
0V"
b1101 N"
1P"
0?"
b1001 7"
1p
1+!
1U
1n
13
1<
1T
1]
0\
0G!
1F!
0K!
1J!
1{
0S!
1R!
0O!
1N!
0W!
1V!
0="
1B!
b10 @!
#45000000
1!
1c
#46000000
0!
0c
b10 A!
#47000000
1"
1d
#48000000
b10 `
0"
0d
b1000 f!
1?"
1V"
b10 ]"
b100 k"
b10 ?!
0;!
1>!
1C!
1l!
0.!
0]
0T
1S
0*
0)
0(
1'
0q
1r
1G!
0F!
1K!
0J!
1S!
0R!
1O!
0N!
1W!
0V!
1%"
b1 @!
#49000000
1!
1c
#50000000
0!
0c
b1 A!
#51000000
1"
1d
#52000000
b11 `
0"
0d
b10 y!
1{!
b1 ?!
0>!
b11 k"
b11 ]"
0V"
b1011 O"
0?"
b1011 8"
b1001 f!
0r
1*
16
05
1?
0>
1T
1]
1\
0[
1.!
0K
0G!
0K!
0S!
0O!
0W!
1t
1~
0}
0%"
b0 m"
#53000000
1!
1c
#54000000
0!
0c
b0 n"
#55000000
1"
1d
#56000000
b100 `
0"
0d
b1010 f!
1?"
1V"
b100 ]"
b0 l"
0i"
b1011 k"
0{!
0^
1Z
0T
0S
1R
0*
1)
1'"
1G!
1K!
1J!
0I!
1S!
1R!
0Q!
1O!
1W!
0t
b1 m"
#57000000
1!
1c
#58000000
0!
0c
b1 n"
#59000000
1"
1d
#60000000
b101 `
0"
0d
1|!
b1 l"
1i"
b1010 k"
b101 ]"
0V"
b1100 N"
0P"
0?"
b1000 7"
b1011 f!
1u
1^
0n
0l!
1*
03
0<
1T
0]
0'"
1F!
0J!
0{
0R!
1N!
1y
1="
1a"
0B!
b0 _"
#61000000
1!
1c
#62000000
0!
0c
b0 `"
#63000000
1"
1d
#64000000
b110 `
b0 `
0"
0d
0C!
b1100 f!
1?"
1V"
0^"
b1011 \"
b0 ]"
0["
b1001 k"
0|!
0+!
0U
1]
0\
0T
0R
0N
1M
0*
0)
1(
0u
0&"
0G!
0F!
1E!
0K!
0S!
0O!
0N!
1M!
0W!
1T"
0="
0a"
b1 _"
#65000000
1!
1c
#66000000
0!
0c
b1 `"
#67000000
1"
1d
#68000000
b1 `
0"
0d
b1000 k"
1^"
b1 ]"
1["
0V"
b1011 N"
0?"
b111 7"
b1101 f!
1+!
1U
1*
13
12
11
00
1<
1;
0:
1T
0]
1F!
1J!
1{
1z
0y
1R!
1N!
1V!
#69000000
1!
1c
#70000000
0!
0c
#71000000
1"
1d
#72000000
b10 `
0"
0d
1?"
1V"
b10 ]"
b111 k"
1]
1\
1[
0Z
0T
1S
#73000000
1!
1c
#74000000
0!
0c
#75000000
1"
1d
#76000000
b11 `
0"
0d
b110 k"
b11 ]"
0V"
b1010 N"
0?"
b110 7"
03
0<
1T
0]
1G!
1K!
0{
1S!
1O!
1W!
#77000000
1!
1c
#78000000
0!
0c
#79000000
1"
1d
#80000000
b100 `
1$
0%
b0 `
0"
1f
0g
0d
1X!
0Y!
1?"
1V"
b100 ]"
b101 k"
1]
0\
0T
0S
1R
1'"
#81000000
1!
1c
#82000000
0!
0c
1[!
0\!
#83000000
1"
1d
